"tick","Min Size","Max Size","Mean Size"
1.0,1.0093597732437773,1.009998298212886,1.0098431411051891
2.0,1.0255840872577393,1.0297364773694426,1.0282283724717334
3.0,1.0494473861623557,1.0582873551803642,1.0535308160213055
4.0,1.077878037118353,1.0914478172105737,1.0847992020897104
5.0,1.1140866164909675,1.1312841031351126,1.122610748869367
6.0,1.152816371449735,1.179191410394851,1.1661089619992535
7.0,1.2024611957464368,1.2323976169642992,1.2154844642967448
8.0,1.2533277093828656,1.2905965579487382,1.270269448417658
9.0,1.3105593327549288,1.35096280002268,1.3306239396880146
10.0,1.3744318893318996,1.421122469238471,1.3961250763520594
11.0,1.4445137499878182,1.4954813026520422,1.467214829179086
12.0,1.5166392654716037,1.5699744262732565,1.5436434962471712
13.0,1.5959468196937814,1.6522533085756004,1.6254352713747644
14.0,1.6763804726512173,1.7388714711274955,1.7120319218090039
15.0,1.7619907111325301,1.839632221537177,1.8037094916438454
16.0,1.859257808739785,1.9376632956694817,1.9010175837110495
17.0,1.9635330107994382,2.0435489519289702,2.0031838858098716
18.0,2.0710929778497666,2.1530470503494152,2.1100926977591588
19.0,2.18258137150202,2.2672378569166174,2.2229147357382804
20.0,2.2945247134054085,2.387657229385805,2.33985051086687
21.0,2.4064212723751552,2.51779035031097,2.462850287899935
22.0,2.524398093072232,2.6524754359549845,2.589880786079542
23.0,2.6504385011829434,2.781525558703579,2.7215412898867397
24.0,2.7817989082704297,2.918129027860705,2.858155094474647
25.0,2.919310347114224,3.0719419441698115,2.9999656471349523
26.0,3.0588101640879177,3.2225294286082495,3.1458378927102317
27.0,3.206244926056825,3.3770988358184693,3.2974796000761453
28.0,3.361372209794354,3.5358228354412127,3.4534611177751793
29.0,3.5213568741199563,3.7066508006071666,3.6143585439108556
30.0,3.683110525326338,3.874955209582112,3.779919148282893
31.0,3.8490325812157247,4.051130232058931,3.9503718371631344
32.0,4.022199662097265,4.229198891031555,4.125899279514769
33.0,4.196964179251809,4.409953889509197,4.30561955566944
34.0,4.3753447992913435,4.599916826551779,4.490696893696744
35.0,4.5628607812454005,4.795944317984394,4.679734905707998
36.0,4.758566665214022,4.994631624547764,4.87428541126265
37.0,4.957972680532841,5.191219786545261,5.072981024560704
38.0,5.157686095829123,5.396243937828112,5.275635751974282
39.0,5.361799847329968,5.604376035374589,5.483486285050307
40.0,5.5698546731448735,5.819827101477421,5.696515023177464
41.0,5.782154972923454,6.041947573628276,5.914679245824298
42.0,6.003137870135252,6.267952108862808,6.137527388259418
43.0,6.225572316579055,6.5022719653137,6.365284890402526
44.0,6.456817890389357,6.739976257772648,6.597090453374969
45.0,6.69421232375782,6.989372685728594,6.834189398434363
46.0,6.933099635192193,7.239122122987173,7.075594851128594
47.0,7.177859029117972,7.490232080474962,7.3213780194715365
48.0,7.424113160474227,7.746435090657323,7.571549833523062
49.0,7.67398630782962,8.005024789115414,7.82641569695233
50.0,7.933260414889084,8.27125227392651,8.086106604502625
51.0,8.19275274211308,8.538469885017257,8.350167823762682
52.0,8.453529907609337,8.809303142311983,8.61929883488305
53.0,8.721722196759657,9.084630104622338,8.89178226456349
54.0,8.997070196280257,9.365322332459037,9.169963975311259
55.0,9.274461550910493,9.650458417763003,9.452356588783838
56.0,9.561839849269019,9.937570554402193,9.73900773892738
57.0,9.853963051682804,10.22706103117671,10.030138416201385
58.0,10.158472271838692,10.529504938144237,10.32556024708303
59.0,10.462253276968841,10.84375569364056,10.625073110013805
60.0,10.766865445673467,11.150675709031056,10.929242729170387
61.0,11.07080259172246,11.46074322684668,11.238139719163183
62.0,11.380008816798219,11.781031153616494,11.551152313207133
63.0,11.692109780076427,12.103972789372783,11.868862844057501
64.0,12.018249566708693,12.424250662361738,12.190982486632398
65.0,12.353221553710757,12.750624906464946,12.516751517952375
66.0,12.669466225600338,13.084226491316223,12.847452869253262
67.0,12.998612510669048,13.41749043487478,13.182622408160366
68.0,13.340572690765843,13.761676642743405,13.521751571072288
69.0,13.67997047059471,14.115789300280158,13.865771295343341
70.0,14.02282830012264,14.465832246446517,14.212826364008823
71.0,14.369613179448063,14.824181124893949,14.565407606298363
72.0,14.729139067973012,15.182903042414692,14.921586705030014
73.0,15.079623413779778,15.540159513249527,15.28236154432325
74.0,15.43579307670007,15.904549203237984,15.646947447732602
75.0,15.803046699035917,16.26448822818231,16.016428884152596
76.0,16.175169225286233,16.637396057206203,16.389973124402644
77.0,16.549831533511174,17.014912060017227,16.767118894229107
78.0,16.929727618813054,17.39497456672601,17.14860747205401
79.0,17.308622406315994,17.77487285186071,17.534132456731747
80.0,17.68796023301082,18.164269429328847,17.92312512778207
81.0,18.077893743910828,18.559518444836137,18.315930483688035
82.0,18.46589582192246,18.962182906819507,18.712846625876832
83.0,18.86432092442643,19.37490116366185,19.11375154801062
84.0,19.266608319233637,19.785730911348942,19.51757122656636
85.0,19.67047186647076,20.1938137485343,19.925504633390624
86.0,20.082054714753756,20.603490327536125,20.337608037389206
87.0,20.495888112732207,21.01882581199752,20.753499278699866
88.0,20.913323701210317,21.43528374268906,21.17404405829403
89.0,21.33437506290618,21.859943471141158,21.597313857142044
90.0,21.752071740971875,22.287524742074307,22.025912912040624
91.0,22.17393607120029,22.72038729049265,22.4568664374403
92.0,22.603773416534526,23.162987425355244,22.891093028196863
93.0,23.042797787140582,23.606293316630182,23.33016976369503
94.0,23.485739366507616,24.054713088944556,23.773433704812284
95.0,23.94163491618353,24.50089594928548,24.220758896206828
96.0,24.391362767787644,24.9494957733294,24.67159654397312
97.0,24.841454800372006,25.405282333875075,25.125525260552028
98.0,25.28895650989608,25.872050467596853,25.582371334266973
99.0,25.740590011526358,26.336598889543673,26.042772058585296
100.0,26.196041157268912,26.830319927828384,26.505739228230926
101.0,26.646419952488497,27.29953719857847,26.97163397156072
102.0,27.105935903869096,27.774324601953847,27.440143257772743
103.0,27.56610903238644,28.24883116647135,27.910470940753864
104.0,28.049450138825915,28.72726325533818,28.383672002894155
105.0,28.525477829342698,29.209816396278324,28.859460948044777
106.0,29.00661895446711,29.691381230750117,29.338469671463564
107.0,29.494123792701856,30.18210960512515,29.820393163153177
108.0,29.97145375095074,30.66947333306074,30.30593771977523
109.0,30.454849475573273,31.16269251445541,30.793302761871015
110.0,30.930876680419306,31.65419680716004,31.281960828665582
111.0,31.412665469078338,32.149555210215034,31.77588567154749
112.0,31.897106711312652,32.67578554767882,32.27104940351723
113.0,32.39591691091423,33.21053987766849,32.76825518487922
114.0,32.86322279079119,33.72820383962709,33.26527066219618
115.0,33.33602389753796,34.25670415682485,33.76149973289578
116.0,33.79464247278869,34.7673990899208,34.25677424800502
117.0,34.27319573045009,35.28673756067175,34.75129537752191
118.0,34.732189166902096,35.7755062006833,35.246132876237105
119.0,35.241433920045374,36.27756152362097,35.74062455492338
120.0,35.703629432159936,36.79600578515557,36.236710960065935
121.0,36.16617881896672,37.294257706741334,36.73364840146077
122.0,36.655652133957474,37.8336511294567,37.23291186736127
123.0,37.1442833431228,38.36796175998868,37.73171004093199
124.0,37.65392431496875,38.878826581877654,38.230233547152835
125.0,38.1686703891307,39.37629381345352,38.72947388068523
126.0,38.67463611443526,39.87362032934325,39.225817756606155
127.0,39.187727463264004,40.341923351509024,39.72233559502595
128.0,39.68145243469627,40.84771737064001,40.21706441131557
129.0,40.16209327961551,41.36664527070708,40.71875161308071
130.0,40.65772531401366,41.89676820139866,41.21999421339531
131.0,41.15990599375218,42.427910300393116,41.72327692788432
132.0,41.64298286659641,42.9164193759486,42.22542477352868
133.0,42.10591802089007,43.4352785956487,42.727359748768755
134.0,42.57552115764001,43.960060155708334,43.22817288442898
135.0,43.049705370475984,44.491635667574585,43.728687040077254
136.0,43.493267655696236,45.01638321127043,44.2295261620322
137.0,43.99333942264084,45.53742292199516,44.72697530895487
138.0,44.491882967820835,46.02489481713389,45.22725070525201
139.0,44.98456674577666,46.51502328087109,45.72632624681475
140.0,45.480756089964395,47.005423508649685,46.22284967482502
141.0,45.98107071363831,47.50011202469002,46.717938037318625
142.0,46.44602520461425,48.00207689267584,47.21283820166487
143.0,46.923648689473026,48.52802067795071,47.71123277086954
144.0,47.39879821174776,49.02311673236779,48.20930790111111
145.0,47.89786311283938,49.53037542933832,48.70886865142101
146.0,48.38320333719251,50.03785519919126,49.206956855876335
147.0,48.88211653075644,50.53112765172032,49.703917357523906
148.0,49.340405442307215,51.01718244920486,50.19736001838166
149.0,49.81524253477573,51.49777478745209,50.693103539878
150.0,50.32312231862217,51.97478903513403,51.188649931420656
151.0,50.80191171730633,52.46409888611176,51.686273175505036
152.0,51.280191683801796,52.97301514122636,52.18215653585468
153.0,51.767557910296574,53.47005994806767,52.67728465762223
154.0,52.24965129676505,54.007934339719384,53.17098504077882
155.0,52.7329811156471,54.52971295967002,53.669062289483584
156.0,53.21117410826034,55.064862869798695,54.16461243354967
157.0,53.63332987262864,55.59700491396247,54.66473703176646
158.0,54.08524058905427,56.120407944754724,55.16667936728106
159.0,54.54569264548828,56.64055589128987,55.66680204281738
160.0,55.014521110609614,57.154154765554736,56.16600481988003
161.0,55.476747281274264,57.67371848870305,56.66392012585776
162.0,55.952005240949774,58.19717365348017,57.16401031492086
163.0,56.44470718205908,58.711194539971224,57.6654842488667
164.0,56.916713221843835,59.258897930602586,58.167944996496225
165.0,57.38396617037246,59.80817681941907,58.67005704150927
166.0,57.85604473711692,60.327050727880604,59.16987251001847
167.0,58.356931349229974,60.81982464149133,59.665071807755815
168.0,58.83298309281932,61.30645965909124,60.16137757231492
169.0,59.28963145625775,61.77731923457705,60.65437021741007
170.0,59.73558536332564,62.292760983987236,61.14863603362563
171.0,60.208025221219266,62.82828914407407,61.647161979756326
172.0,60.70443564583778,63.350934178999154,62.144501487439356
173.0,61.19997189662185,63.86576629071263,62.64072520874452
174.0,61.68147289686834,64.37814891842426,63.137178087429774
175.0,62.13832028831819,64.91858309307834,63.638424136219115
176.0,62.622807029022354,65.43776603576494,64.13828834621165
177.0,63.11748051960951,65.963225374592,64.63871575140782
178.0,63.593248776283566,66.48821747834793,65.1385973433249
179.0,64.06993493406334,67.0185303481575,65.63894395426003
180.0,64.54840883317635,67.54928381541743,66.13905313370567
181.0,65.02832541130482,68.07444810599087,66.6397357786559
182.0,65.52254179498878,68.61208852159788,67.13944928665775
183.0,66.02059520855778,69.14075024437389,67.64035100641503
184.0,66.52132168225012,69.6741656606062,68.14023974898623
185.0,67.00702977462439,70.20705459950955,68.64109270418956
186.0,67.47173241758253,70.74456339867317,69.14351459646052
187.0,67.95726298569002,71.27060468173815,69.64553396121843
188.0,68.45530689226463,71.80159041445,70.14712949719363
189.0,68.98942111133597,72.32450875751438,70.64834168872319
190.0,69.50807968048377,72.85027047820851,71.14785109430082
191.0,70.02392846629255,73.36317070730027,71.64982087593012
192.0,70.53766113746211,73.88586070965273,72.15293485653186
193.0,71.05073009974787,74.41722378352654,72.65502467052886
194.0,71.55636410126694,74.9493664131453,73.15899839015418
195.0,72.06533398897618,75.46749115138778,73.66150862714093
196.0,72.55662465601925,75.98636738745493,74.16232148449735
197.0,73.0418179444014,76.49985541088736,74.66296533352077
198.0,73.53691783707356,76.98164267062207,75.16175881943836
199.0,74.02893271108856,77.47267335319889,75.66058074027261
200.0,74.53893810683628,77.95280956035943,76.16013587794572
201.0,75.00393498386256,78.43126396445787,76.65879846298233
202.0,75.48390844524837,78.90085929586782,77.1567520404478
203.0,76.02060710229678,79.36707626031476,77.65481884819359
204.0,76.54595634579658,79.85536995084023,78.15642741645075
205.0,77.07367638317868,80.3560706963646,78.65576185893187
206.0,77.61710949623492,80.84233961841322,79.15340396861608
207.0,78.14493275000714,81.29094922288085,79.64992743783648
208.0,78.62625515367138,81.74643406225132,80.14534068988094
209.0,79.12673347621458,82.20446133008922,80.64566088299799
210.0,79.61254669346381,82.66917246519584,81.14484448157788
211.0,80.09051917942475,83.17737463256117,81.64532225892994
212.0,80.61423225982348,83.6883106522542,82.14726185830233
213.0,81.11676925654058,84.21172990702564,82.64923030733104
214.0,81.6219745356054,84.72583821785642,83.1522109157688
215.0,82.09113187874202,85.24343813166028,83.64966553748731
216.0,82.5475335232378,85.7602200907027,84.14531592075551
217.0,83.03251699368936,86.28090952846927,84.6428047692944
218.0,83.52751024928875,86.80876603780321,85.14348233675544
219.0,84.03680519426474,87.34797556669226,85.64711881443147
220.0,84.54581994645996,87.87522409477278,86.15166645061906
221.0,85.04866527272155,88.41914575313457,86.65571056756285
222.0,85.57971880641766,88.9812624697062,87.15850105325968
223.0,86.0931874472578,89.53507523161832,87.66163284522169
224.0,86.5940872994205,90.07910516665325,88.16500588815849
225.0,87.09806342028081,90.62951582571965,88.66481772610207
226.0,87.59788498156703,91.1824179640413,89.16712172695998
227.0,88.08547682059928,91.73645781525651,89.66696409100136
228.0,88.60121484300119,92.27145310765606,90.165778789787
229.0,89.06789684971558,92.78569381057525,90.66677810061424
230.0,89.54261324826857,93.3015065513226,91.16648642532226
231.0,90.02896617382295,93.82146459808348,91.6639176084605
232.0,90.51674115995407,94.33485945628266,92.1639273635694
233.0,91.00109421604775,94.84797089949957,92.66193767159228
234.0,91.4797595196217,95.35682562220151,93.15817488407264
235.0,91.95445521818237,95.85440727337271,93.65768169055809
236.0,92.41865908517033,96.33501954319196,94.15740409363968
237.0,92.89286969566015,96.82603137398613,94.65511688485401
238.0,93.36816936258222,97.31146646797899,95.154494671661
239.0,93.8862980290921,97.80863820789624,95.65596678003381
240.0,94.41895615958605,98.3115451914655,96.15706268182858
241.0,94.95748285623729,98.80609723058538,96.659450329436
242.0,95.4781922794459,99.30036680014813,97.15917084330911
243.0,95.9949077149783,99.7647351291241,97.65810300092764
244.0,96.5064066278841,100.22591166845997,98.15765873459645
245.0,97.01528397072569,100.66463152105696,98.65517661697929
246.0,97.53320388094751,101.15804964969642,99.15298198559603
247.0,98.05832135839151,101.6416801789916,99.65007991903495
248.0,98.59856391900215,102.08985894908905,100.1456988808255
249.0,99.07912967319132,102.54230774767939,100.64293461270765
250.0,99.53623430868143,103.04600691719456,101.13957974316716
251.0,100.03222114254719,103.5483966278635,101.6364578159319
252.0,100.51886672528924,104.0357609627653,102.13064475736859
253.0,100.99886129696618,104.50822169465255,102.62698757887135
254.0,101.47480315436141,104.96584100091606,103.12541611669717
255.0,101.9650203033164,105.45146969382876,103.62173215200174
256.0,102.48103431337977,105.97302156746146,104.12091704445685
257.0,102.98282853504408,106.4846328621706,104.61818360611485
258.0,103.47498026066458,106.98336404441147,105.11719023618312
259.0,103.96394247164716,107.48463558230539,105.6174622194529
260.0,104.45014175673712,107.968455203995,106.11811811190358
261.0,104.93821888601872,108.50135789948042,106.62164426872185
262.0,105.43439679048954,109.04087107512161,107.12602690533176
263.0,105.92828653016359,109.57639708194176,107.62992165571103
264.0,106.42536961157572,110.0998566466057,108.1351419602865
265.0,106.93591592225478,110.68123579728177,108.63806010697958
266.0,107.45991707360604,111.23296717560378,109.14067706364652
267.0,107.96713496290378,111.76375774077832,109.64168308107593
268.0,108.43541862897344,112.2966153719229,110.14459676575989
269.0,108.89022927864457,112.83599721627071,110.64451453081423
270.0,109.37910350673368,113.37770464592374,111.14473939009093
271.0,109.86563459184954,113.92538163546234,111.64599399466954
272.0,110.34377479429122,114.45909138452257,112.14854522783352
273.0,110.79936837874118,114.99914984173601,112.65198903774964
274.0,111.23932960763571,115.53753598575241,113.15526839488182
275.0,111.6592791403434,116.08000541268376,113.65532973273072
276.0,112.12751989457288,116.60774307651904,114.15683042152267
277.0,112.62512628403724,117.12524926055681,114.6544503362984
278.0,113.11438555760773,117.6449829425732,115.15305147399489
279.0,113.60377264050766,118.15788289138109,115.64973627048768
280.0,114.10143547131912,118.63138161042,116.15010195672536
281.0,114.58843521656001,119.12023567149642,116.65326354982545
282.0,115.08024746007983,119.61245055944885,117.1552297701036
283.0,115.56401675081811,120.08074750960098,117.65276136994099
284.0,116.07288195680593,120.53828503986114,118.1511211369076
285.0,116.54535361405227,121.01901581312987,118.65109235580438
286.0,117.02552363787078,121.50096427737726,119.15092197518985
287.0,117.51465747124979,121.99341358495168,119.65186307513797
288.0,118.00774550233034,122.48719124788641,120.15456226408092
289.0,118.49794825704765,122.97482235004185,120.65630266250508
290.0,119.00422891986554,123.46570557396849,121.15916173661707
291.0,119.50057156584921,123.95901291197389,121.66113373984375
292.0,119.99672743579603,124.47170360893234,122.1664392417354
293.0,120.5276759052323,124.98058258639193,122.66797512027397
294.0,121.04921538325024,125.49683494039589,123.16962198719284
295.0,121.56670546817358,126.01439793709676,123.67108894634111
296.0,122.08066119926514,126.53506659379939,124.17269059358661
297.0,122.59328145825535,127.05110800100036,124.6754997255387
298.0,123.11140415892002,127.56469618043873,125.17459274347527
299.0,123.62408738238734,128.0850601009001,125.67374484805696
300.0,124.11841259608974,128.60776291501253,126.1708699179265
301.0,124.65018216208087,129.138825674886,126.67031688711117
302.0,125.15258537075479,129.66674991427234,127.16780464622093
303.0,125.65602400757602,130.1874200242503,127.66716822491625
304.0,126.16943402897796,130.73215141644246,128.17021238589894
305.0,126.68805163512236,131.26881445201357,128.67331604658813
306.0,127.19823526638092,131.78624655225556,129.17397779887392
307.0,127.69884570609776,132.29464190181122,129.67368546459306
308.0,128.19091184713642,132.81089799386925,130.1740190486353
309.0,128.67841253750257,133.32660343275649,130.67080292337508
310.0,129.18019776127298,133.8396812347021,131.1683238873888
311.0,129.6588773072394,134.36570924051816,131.66772050958673
312.0,130.11362567711618,134.8871808364872,132.16408872438132
313.0,130.5842074600048,135.39742835815076,132.6594163182809
314.0,131.0660812426591,135.9114203098557,133.1605442158391
315.0,131.54193297388028,136.41838852928032,133.65732003963365
316.0,132.00115910720774,136.92435774003167,134.15081698168822
317.0,132.48657989317547,137.43210458459112,134.64383788184583
318.0,132.97118533021535,137.94202354754333,135.1368776601001
319.0,133.44622003412803,138.456043594021,135.63123577774758
320.0,133.91795398153596,138.97871289881655,136.12642431331756
321.0,134.38468374730786,139.50555535985168,136.6197668266053
322.0,134.8431161431875,140.03408347764298,137.1134678735944
323.0,135.28581504305126,140.54353903725757,137.6080946801475
324.0,135.73239216709277,141.04543143991162,138.1000072011211
325.0,136.17344242276624,141.54475203167195,138.59210557866282
326.0,136.55202292503324,142.01922930922606,139.08578218216076
327.0,136.9550785635249,142.48896651780944,139.5764000740952
328.0,137.45026541874745,142.9728830915481,140.07318333718544
329.0,137.94990337957162,143.44127108638654,140.5716149343479
330.0,138.44125483092853,143.94310366725796,141.07241333369382
331.0,138.9351855670754,144.43260758616975,141.57679848881372
332.0,139.37950338663768,144.9289003286582,142.08021963212224
333.0,139.83536432282767,145.40137154577778,142.58412985715378
334.0,140.3339502012916,145.85758885449277,143.0927357935106
335.0,140.8043572783773,146.3589336600342,143.59703084667726
336.0,141.30003566236005,146.86131973966968,144.1015974070766
337.0,141.79971799495866,147.36828428015124,144.6075086647172
338.0,142.28926268734972,147.87042168759288,145.1129818469274
339.0,142.78125854271698,148.3751219036734,145.61987388184102
340.0,143.25279114189559,148.8899459741778,146.12458882604764
341.0,143.70889063689393,149.3913351671888,146.6284833202878
342.0,144.14741867590232,149.9093179454586,147.13174847616227
343.0,144.6118022206915,150.42871353020905,147.63221180594715
344.0,145.08913231975868,150.9298789461424,148.1334591006045
345.0,145.56506176204655,151.43560862481374,148.63383586407468
346.0,146.04181919259952,151.92139665758484,149.13518710072591
347.0,146.5232566146599,152.41285601065016,149.63516485891358
348.0,147.01415394870565,152.93636497510818,150.13458897036296
349.0,147.51156044917647,153.44898546054947,150.6310778574703
350.0,148.00557490813546,153.95989662233495,151.12897368262358
351.0,148.49942777258576,154.45841724570596,151.62817529953887
352.0,148.9783350364957,154.89157381386718,152.12717509301515
353.0,149.4592090540612,155.38946607642097,152.62548101947684
354.0,149.93542927076342,155.88242311147263,153.1232129417746
355.0,150.42350350157824,156.42123836928968,153.6235272712982
356.0,150.9314898888697,156.92637738182898,154.1214102655293
357.0,151.40388062412384,157.40799438687498,154.61793800084857
358.0,151.90455676749116,157.88169187653116,155.11532702612067
359.0,152.4021460364503,158.42580750818138,155.61002017403592
360.0,152.90638694363182,158.96004546049056,156.10657943520457
361.0,153.40537445862313,159.51364353515447,156.60805939623478
362.0,153.89981591195334,160.0508194092429,157.10940901470508
363.0,154.40160651501733,160.5854484577152,157.61230839853337
364.0,154.88104486010516,161.10881841796925,158.11307576637952
365.0,155.32617325617713,161.62175453039825,158.612459032226
366.0,155.74422420655623,162.13457677927573,159.1144595214508
367.0,156.17965243545373,162.64941143139737,159.61334684078648
368.0,156.6296336368426,163.16082696517003,160.11162373484194
369.0,157.12736321432763,163.7009128213069,160.60785364968496
370.0,157.62323011079351,164.19142363044904,161.10412608815165
371.0,158.11826520926334,164.6902579413611,161.60356526147035
372.0,158.6287696674165,165.2050701355306,162.09991924075737
373.0,159.12132848860236,165.7176810596977,162.59966116557456
374.0,159.5928592679953,166.24329048898775,163.09974089059583
375.0,160.06152907510295,166.74925297801622,163.60070579863222
376.0,160.5375269701286,167.25114530797356,164.10241091550182
377.0,161.00640453263426,167.75584479369695,164.6035690466437
378.0,161.49121373203823,168.23755449529978,165.10203891521758
379.0,161.99784684761667,168.72531123780885,165.59996137236817
380.0,162.49437273464173,169.216977044507,166.0998747832314
381.0,162.99591420057004,169.71845377567928,166.6001980720316
382.0,163.5001006238559,170.22324300728744,167.09929076193316
383.0,163.98937361182652,170.71721664418703,167.59977993780618
384.0,164.47774164688082,171.20098332851663,168.0992383056222
385.0,164.9825505439705,171.7115428828914,168.6015116842575
386.0,165.47431094771954,172.22131142775063,169.10250647713215
387.0,165.9668897434278,172.71054021073738,169.6015584600283
388.0,166.4530308772042,173.22236714478814,170.1002242132323
389.0,166.95183192540665,173.72784541723783,170.59639853066338
390.0,167.45170255466837,174.2453492307197,171.09418602079046
391.0,167.939949150479,174.77172665270277,171.5927056677645
392.0,168.42312530532487,175.2822531521553,172.0904221459244
393.0,168.88533271055908,175.79800592930752,172.58983360245375
394.0,169.34524951255653,176.29225061460627,173.08728536418025
395.0,169.8042178097135,176.77804095696422,173.587486746071
396.0,170.26495497861416,177.25126346898728,174.0861692943687
397.0,170.70737326477425,177.72029092308364,174.58559450948422
398.0,171.15452440113765,178.2173252445948,175.0842704672753
399.0,171.61918364206335,178.67472384192746,175.5807980397993
400.0,172.08662270055157,179.14462271366492,176.07577726264748
401.0,172.55342791335195,179.6535636588092,176.57052676424533
402.0,173.02140103380432,180.15116340523576,177.06489221398576
403.0,173.4873940001475,180.73636633028966,177.5563257661069
404.0,173.95226058525736,181.27479666298478,178.047740658805
405.0,174.4121846376197,181.80941033242726,178.5434325900846
406.0,174.87892503356798,182.3390841562393,179.03671197996653
407.0,175.2920100862254,182.86921195796913,179.53195248567823
408.0,175.7576588706952,183.39495319491706,180.02816704357272
409.0,176.2406454331917,183.93185031407967,180.52593457430595
410.0,176.69922784888422,184.43823558366614,181.0251954726612
411.0,177.15371346385223,184.9380561130423,181.52384510688995
412.0,177.63336696446413,185.45712554933493,182.0248493601777
413.0,178.12581939917993,185.97123960576943,182.52835578906502
414.0,178.66043434614554,186.50448418585808,183.03066429998657
415.0,179.23624026890383,187.02397902251911,183.53429587350314
416.0,179.7674935513293,187.54786745560347,184.03821776745363
417.0,180.27847181929047,188.07583912105756,184.5392798105116
418.0,180.7839312740253,188.6051396342692,185.03956383075933
419.0,181.29559609778929,189.13814907547774,185.54224668299526
420.0,181.80361934096325,189.67199890835897,186.0421619420848
421.0,182.30001508087625,190.2009914441941,186.54210131101064
422.0,182.77215918678564,190.72734383238003,187.0399400489689
423.0,183.16468734690926,191.2540492547768,187.53784538405554
424.0,183.55694314171333,191.77261470255897,188.03573884246038
425.0,183.9777750267089,192.29444688993263,188.53190637866143
426.0,184.38585777201698,192.81370773459776,189.02340851622918
427.0,184.8063903522469,193.31511311390662,189.51919476326216
428.0,185.246585944295,193.85103859714923,190.01537171391413
429.0,185.67956610803498,194.37655124173725,190.50963692138345
430.0,186.08938717789022,194.90166291680413,191.0023346396731
431.0,186.51177219646988,195.33255152130727,191.487598920756
432.0,186.98880818831506,195.83020178076106,191.97628206216294
433.0,187.45987216563435,196.3725249731307,192.46436209035278
434.0,187.9244058430987,196.8913624544464,192.95507082745905
435.0,188.3862732836069,197.41063968052381,193.44729464083642
436.0,188.83911666864765,197.92694167343194,193.94314101224361
437.0,189.29407685271931,198.44148978678038,194.43909340828344
438.0,189.76462997726165,198.95730041961178,194.94049648533112
439.0,190.2751000284939,199.42088863737874,195.44599820727223
440.0,190.78651779542676,199.9038441672734,195.95546364080522
441.0,191.30064244673355,200.40755994478232,196.4652045343584
442.0,191.8300105790561,200.90373627750427,196.97579062477467
443.0,192.34076750683832,201.41650020279678,197.4871183252052
444.0,192.8513092321204,201.9360084796044,197.99831622702544
445.0,193.347912004441,202.4608036427874,198.50785157481675
446.0,193.84537007570265,202.9803756156516,199.01713850989265
447.0,194.32865989896,203.49689049225057,199.5251770603707
448.0,194.8369137009722,204.02059095385007,200.032330632797
449.0,195.36047064440555,204.557172170109,200.53854601038842
450.0,195.88810785573904,205.08177069891465,201.0415227829927
451.0,196.4150109607726,205.56040754564327,201.5426620980345
452.0,196.93296126579165,206.05085887387384,202.04101154668206
453.0,197.44495158628558,206.547725457691,202.54126596492594
454.0,197.97161165174327,207.049931180796,203.0329851303251
455.0,198.4902013390511,207.54678074873738,203.52354890279113
456.0,198.98890814031472,208.04294991323943,204.01436528943265
457.0,199.4645537826209,208.53391050497055,204.50759536172774
458.0,199.9229852205794,209.035007321562,205.00653077846584
459.0,200.39964302096513,209.54472393871038,205.50404725148235
460.0,200.87726474222725,210.05682401729734,206.00375793351535
461.0,201.38996953469,210.53318125901964,206.5024224086471
462.0,201.90329386901342,210.98723423863748,206.9996706614317
463.0,202.41828137548174,211.4973856725496,207.49783981430275
464.0,202.9238940296648,212.00902624743978,207.99810916282635
465.0,203.4333629189059,212.4744843679479,208.49560334535738
466.0,203.92330178131814,212.98338406798882,208.9958142235382
467.0,204.40538029816,213.44889569705572,209.49853252275878
468.0,204.90941956843713,213.9253960715559,210.00384362602358
469.0,205.41800174158996,214.43924152083449,210.50766742862697
470.0,205.92922469918147,214.96602619964384,211.00963098212554
471.0,206.4388687131507,215.48227258858722,211.51234798999525
472.0,206.94807878424876,216.00637304752118,212.0137986371757
473.0,207.4431942576915,216.50639081198008,212.51295113648973
474.0,207.93157754392362,217.00176476519073,213.01428312614155
475.0,208.4331319246371,217.50295806976484,213.51566917684306
476.0,208.93303738724904,218.00093877147867,214.01945344285025
477.0,209.42933096288468,218.50801477133047,214.52255187868752
478.0,209.93669864749532,219.01309344548017,215.02493857366736
479.0,210.42635527967005,219.54574932784058,215.5296800547606
480.0,210.90581516526402,220.05902340597456,216.03105370204182
481.0,211.380416906618,220.5765665838493,216.53188153949785
482.0,211.87400436618128,221.09431396916025,217.03430338588885
483.0,212.35188891418971,221.61416098710131,217.5405408966864
484.0,212.83000214599767,222.1317786070237,218.04758352868438
485.0,213.30891048972256,222.63799927189694,218.551107416662
486.0,213.7913208523788,223.1390869962981,219.05407900268537
487.0,214.28432906868164,223.6571799379329,219.5570379811395
488.0,214.76653427380364,224.16231417901795,220.06002845569193
489.0,215.2536307460535,224.6860374992851,220.5642708876696
490.0,215.72995703961462,225.20894933493557,221.06738715256117
491.0,216.2077568205585,225.70781682361132,221.57130568646645
492.0,216.67652892252656,226.2085117978787,222.07468034709126
493.0,217.15137173587914,226.7056790136847,222.57766895645233
494.0,217.63187786783317,227.18582743007906,223.080431243892
495.0,218.09953253571868,227.66613091223624,223.58426000863412
496.0,218.58534853397163,228.1819009393615,224.09159994585892
497.0,219.0682879811897,228.68761811333226,224.59466860369216
498.0,219.55788132274515,229.19614384886094,225.09701593638326
499.0,220.05829112496684,229.7004588762739,225.59925041131038
500.0,220.52469196017358,230.22697496182968,226.09566611350488
501.0,220.99436332672127,230.69866929005352,226.5917373696154
502.0,221.46392018530508,231.1759898366149,227.08673885446618
503.0,221.93378953665717,231.6811482315998,227.58618316019422
504.0,222.3993898165551,232.1885482903289,228.0828737901705
505.0,222.78315280201602,232.71014994775163,228.5790763263825
506.0,223.1594891130737,233.2324605238087,229.07244347175856
507.0,223.55692301433757,233.73937493824386,229.5633407222117
508.0,223.97949951026578,234.23983902135384,230.04943633143824
509.0,224.4199374472838,234.73055603737697,230.53468977165906
510.0,224.88080414958057,235.21958677251112,231.02452375752281
511.0,225.37412581984643,235.70307193692295,231.51408266362307
512.0,225.84788402779483,236.18318130149726,232.00278302950053
513.0,226.3493990080756,236.6626333303888,232.49296381623918
514.0,226.85612396221597,237.14987217540605,232.98247488948402
515.0,227.35536963253273,237.63434468244887,233.46980914303995
516.0,227.84950001419745,238.13045560619778,233.95780190945408
517.0,228.34468369648317,238.62005456709053,234.44905722575814
518.0,228.85254242667455,239.11262228106597,234.93876741997906
519.0,229.38995848856393,239.636152321745,235.43206932142115
520.0,229.90714824487216,240.18528233012165,235.92944906395618
521.0,230.42566054076647,240.72644876203248,236.43299822552933
522.0,230.94827122777926,241.2574908348171,236.93916934374238
523.0,231.47271092547328,241.78372674115215,237.44572412706904
524.0,232.0038770035281,242.3088310004373,237.9550528220821
525.0,232.52349479939315,242.81983860928312,238.46459917627837
526.0,233.0491152493748,243.3346824647531,238.97457874371517
527.0,233.59238119586362,243.86934837697987,239.48347060603825
528.0,234.12909476781488,244.3823872961754,239.9939185088473
529.0,234.67513623917,244.89901003568184,240.5038126792826
530.0,235.21420561943893,245.35311283337168,241.01277660994933
531.0,235.72941900082856,245.83039051227254,241.5220325147383
532.0,236.25410332891616,246.30715567650955,242.02817270157766
533.0,236.7578402422461,246.8341937159024,242.533844586947
534.0,237.1907974840723,247.36478858100705,243.03408971881004
535.0,237.68059985309364,247.89542050371867,243.53234715774377
536.0,238.18175563660208,248.41982554437814,244.02710575044935
537.0,238.72187160939433,248.94580345509098,244.51700704914626
538.0,239.25439209208113,249.4633166739297,245.00293790180152
539.0,239.80909190423077,250.00093971215412,245.48658424824512
540.0,240.3245363104412,250.53792663227526,245.96606278406313
541.0,240.84961136200687,251.06510527652213,246.44091162495718
542.0,241.36284409417527,251.58749148728083,246.91821120935987
543.0,241.81698479811416,252.11727334070474,247.3955628824223
544.0,242.2737862643808,252.64475687661897,247.88025162825417
545.0,242.73238917810832,253.16407128420184,248.36118148172906
546.0,243.20243546412317,253.7034406490716,248.8471545380538
547.0,243.70489777370346,254.22956389356628,249.33617641321584
548.0,244.20388544044215,254.7677709874277,249.82998598801805
549.0,244.70149612140133,255.30541996787292,250.3274447609326
550.0,245.17641815427913,255.84788521930565,250.8299066626748
551.0,245.65157438385057,256.39285025155397,251.33768406836208
552.0,246.09526433030598,256.9428598116524,251.8485285342241
553.0,246.54069505408629,257.49093530685866,252.3604662525528
554.0,246.9907851468631,258.03121420882167,252.87550805253568
555.0,247.43796058911354,258.57807356815545,253.3908373531769
556.0,247.8888742073182,259.13319188699586,253.90335529923286
557.0,248.34657892354056,259.6823807254107,254.4171358918264
558.0,248.81121733065453,260.2346894938894,254.932074352237
559.0,249.30882993115569,260.7886746222642,255.44736042885697
560.0,249.81768983295177,261.3350647768448,255.96195201944036
561.0,250.32130028415693,261.8722627725894,256.47410546244663
562.0,250.81566067510275,262.40805615547106,256.98777063629933
563.0,251.3103037562919,262.90599841251264,257.49242279888335
564.0,251.81040567627866,263.3749439329723,257.99265343217206
565.0,252.30038015667108,263.83750239971783,258.49445373491835
566.0,252.78432264857918,264.3519745814869,258.99784480915616
567.0,253.27370976372382,264.84924563662605,259.4988866054427
568.0,253.7609112154482,265.34417256736884,259.9965681447712
569.0,254.2462336825928,265.83094339954425,260.49806874051035
570.0,254.7254867296572,266.3030200577294,260.99674178733613
571.0,255.219777394426,266.775238466924,261.49601127843
572.0,255.73021903595648,267.2872308308072,262.00123195797477
573.0,256.23899947304506,267.7968101617623,262.50895441578507
574.0,256.7485981123032,268.2868651450262,263.014727394311
575.0,257.25375875980586,268.77890728483203,263.5202665136352
576.0,257.76921016974603,269.26793704001227,264.02732356285594
577.0,258.29778956922,269.76653035290303,264.53334086811856
578.0,258.80805186534997,270.2606552798813,265.0380514224432
579.0,259.3152047084295,270.7590117209218,265.54085155986456
580.0,259.8459831598634,271.2519426959823,266.0412421509095
581.0,260.382855744774,271.7561269295425,266.54321534411827
582.0,260.8997995916987,272.2819684558385,267.04573268474036
583.0,261.41931888899535,272.791425262196,267.54708467949274
584.0,261.93260330246994,273.3156219282281,268.048059357341
585.0,262.4221350725368,273.83627490290445,268.5428372956476
586.0,262.91590223822044,274.346285343573,269.03868490140775
587.0,263.39312188358747,274.8581110384944,269.53553212803575
588.0,263.8799200844462,275.37108586700634,270.03282549849934
589.0,264.39078490511514,275.88793067550057,270.528502292983
590.0,264.8949943588604,276.398037839972,271.02341259607215
591.0,265.4078646852821,276.9169318507333,271.5185662513515
592.0,265.924989527408,277.4380051157298,272.0156343718925
593.0,266.4475702462601,277.9649542699219,272.51146286706324
594.0,266.9675769268302,278.497904836454,273.0104476962155
595.0,267.4886338948225,279.0266418007226,273.50643788304626
596.0,268.00627635754637,279.54790309502044,274.00040327542604
597.0,268.5431815266911,280.07108074790796,274.4951786373082
598.0,269.0728050497523,280.5965409533633,274.992183386723
599.0,269.59789922597577,281.1314485613792,275.4923987830245
600.0,270.12706536827835,281.6527847806294,275.9904920866072
601.0,270.6591596793243,282.1838011256838,276.4906482500141
602.0,271.1865671889786,282.7064800939848,276.9952526690106
603.0,271.71067057665897,283.22831371030065,277.4995477375717
604.0,272.21728140630984,283.75417936492704,278.0027366542113
605.0,272.7270480793388,284.2841488900012,278.5028713347454
606.0,273.24087996480046,284.79136666286263,279.00472142869415
607.0,273.76906498247047,285.32197443181406,279.508029900526
608.0,274.28565707053747,285.8813475510733,280.0136152238615
609.0,274.8093650613864,286.4374241202673,280.5136630185838
610.0,275.3500586087768,286.9886324013815,281.01412186112606
611.0,275.89807514017207,287.5323642341652,281.5176130053682
612.0,276.45442941858425,288.05548963717405,282.02434099891383
613.0,277.00108544103097,288.57231641532843,282.53222996040046
614.0,277.5263967656716,289.08949465617064,283.03779853278934
615.0,278.0210384906758,289.59544531371205,283.5423558852337
616.0,278.52097522532324,290.0929273010627,284.04813909223003
617.0,279.0357980038155,290.5732653670292,284.553962487937
618.0,279.5678014996065,291.04835107457353,285.0623298283432
619.0,280.07469346086486,291.5235404171165,285.56391628543554
620.0,280.5610733005124,292.01788002444425,286.05730714083046
621.0,281.08505209533024,292.51886130578345,286.5540243035871
622.0,281.50849579406196,293.00061821586445,287.04935558598464
623.0,281.8756728846416,293.48674950958457,287.5390332022457
624.0,282.2303765789023,293.98038174224314,288.0270609234856
625.0,282.6031468928465,294.4780172769376,288.51788518857126
626.0,282.98630849223576,294.9760984015232,289.0010402720479
627.0,283.37512915016146,295.48574595745185,289.4868162621344
628.0,283.78401782678435,295.9961537854839,289.97733787571536
629.0,284.2026266760681,296.5151820566994,290.46870560333923
630.0,284.63136487253934,296.9892055812268,290.9622563935203
631.0,285.09499384802757,297.48873415221226,291.46107545588524
632.0,285.55722232057474,297.982808874147,291.9615490988766
633.0,286.0351230492535,298.48116426616673,292.4637097616241
634.0,286.50191603648,298.9830049595516,292.9699350720972
635.0,286.988092934247,299.48674469635586,293.4776397276406
636.0,287.47273221578206,299.9843954654154,293.9873112000203
637.0,288.05301110813616,300.4423950610193,294.4970505903531
638.0,288.5658548281364,300.92068092671684,295.0053248971169
639.0,289.08884663789524,301.4027904249541,295.51578481848577
640.0,289.5970969409937,301.88418222109084,296.0284199042546
641.0,290.087213561146,302.3738502048747,296.5404380413505
642.0,290.5750819067074,302.8774233458307,297.05120412896554
643.0,291.08538033813227,303.37477616937826,297.5585742035261
644.0,291.59094440247156,303.8223088279459,298.0608939311479
645.0,292.1238114242837,304.2679794362047,298.559929185395
646.0,292.65280308187,304.71935155998443,299.0539262703608
647.0,293.1841357510932,305.20406527986745,299.5485767837329
648.0,293.7095184191525,305.6858126626047,300.0430749572808
649.0,294.23033743973815,306.17702595329837,300.5376658871177
650.0,294.7408536539622,306.6714699480542,301.0310531653501
651.0,295.2492469435999,307.1725491365557,301.5278442312831
652.0,295.75668427193995,307.69789244688576,302.0268904174011
653.0,296.2338612428819,308.23075656125314,302.52464672106527
654.0,296.72099402473305,308.7562035919655,303.01945185037476
655.0,297.23321773233585,309.26737184085175,303.5098681037571
656.0,297.7466633192333,309.782824682549,303.9974030208896
657.0,298.24476045974757,310.3062589653836,304.48748074213114
658.0,298.7532886314601,310.8307619278597,304.9801283302621
659.0,299.25573519021737,311.35405187720653,305.4762051483512
660.0,299.7504548256192,311.87840199907066,305.97594284982824
661.0,300.2308862301707,312.40002967124093,306.47869339434556
662.0,300.7195047733397,312.92673643733593,306.98351814819404
663.0,301.23443462718507,313.435393267602,307.48931970357563
664.0,301.74487795086105,313.95288300055296,307.99542926413505
665.0,302.23813803158,314.48063578279675,308.50499802333735
666.0,302.73332392541687,315.00030554014944,309.0131056726379
667.0,303.23138686061134,315.51449400661267,309.52143666697975
668.0,303.74010601255105,316.0301127803348,310.029890717739
669.0,304.2484317400958,316.54456499464334,310.5409575623641
670.0,304.75935631437454,317.05914515059897,311.04752713075294
671.0,305.25813550395884,317.5557858791015,311.55151769917296
672.0,305.70211790705093,318.0648005399363,312.0515762818293
673.0,306.1781902003497,318.5662409854586,312.546086698861
674.0,306.67897635775614,319.0302770774671,313.03365905284454
675.0,307.17862684454764,319.36375966861834,313.5129523948505
676.0,307.69390017292454,319.69800715857406,313.98802521698065
677.0,308.2154266095719,320.0264447356247,314.466968452206
678.0,308.72614804839935,320.330888607602,314.94804252636834
679.0,309.23710717760713,320.64242278365174,315.4324221279794
680.0,309.7505670199542,320.96217754694857,315.9165722071037
681.0,310.2698987380367,321.3797484491488,316.40402322028484
682.0,310.79837714804324,321.91380480433367,316.89626864319774
683.0,311.32323574753235,322.4454124921329,317.3918981895572
684.0,311.8418685389379,322.973912327008,317.8864771733464
685.0,312.36230054537987,323.5249640541013,318.38312684731955
686.0,312.8990041589526,324.07531169775655,318.87948526536024
687.0,313.3300909947538,324.6251862619982,319.3830545199751
688.0,313.7309309629704,325.159238845003,319.8853757142446
689.0,314.13958455434107,325.6829572363153,320.387680308576
690.0,314.55247778111874,326.20599076327187,320.89307188537526
691.0,314.9887475045821,326.7259314344313,321.4022599389664
692.0,315.44664199745785,327.2741470325554,321.9112445553624
693.0,315.9458941429694,327.7928188808241,322.42102000883926
694.0,316.4515850228238,328.30099124699615,322.9291875907881
695.0,316.9677996710249,328.7988475779609,323.4364613072488
696.0,317.4831732446681,329.28256853494116,323.94128099573874
697.0,317.9886922597423,329.79975447033553,324.447818899422
698.0,318.5125108506581,330.31807151847306,324.9540891473415
699.0,319.04163359989917,330.84284528817534,325.45850097080597
700.0,319.57140734775965,331.3632656937514,325.96720999280785
701.0,320.0892154527064,331.88871259069555,326.47206821046916
702.0,320.61033813217,332.4104855485146,326.97773747792496
703.0,321.1289671117491,332.9291985335529,327.4856353780743
704.0,321.65708396748454,333.41350738226686,327.9926150531021
705.0,322.17422194658593,333.9055456171791,328.4993910758171
706.0,322.68826750504536,334.4294600913139,329.00451503526943
707.0,323.15234848459704,334.9454135400384,329.509569811812
708.0,323.6455181696777,335.46053313152873,330.00828887320125
709.0,324.1105638436949,335.98384996277986,330.4992842762749
710.0,324.5707164924358,336.50286080514786,330.99050541193617
711.0,325.03581992236656,337.0247947729659,331.48362202497964
712.0,325.5316742672258,337.5532455754653,331.97583809765285
713.0,326.01876494889837,338.077170656561,332.46326936756407
714.0,326.52385295109815,338.60181575449656,332.9607453818775
715.0,327.0479870039573,339.13171062281594,333.45915342958983
716.0,327.561753468851,339.64030301446337,333.9578094592293
717.0,328.07804812678825,340.15162322397816,334.45766178174995
718.0,328.5969344322685,340.6711774942838,334.95663374485486
719.0,329.114633398163,341.18276752319656,335.4587629613891
720.0,329.63432206600424,341.71763257414807,335.9638347838744
721.0,330.15795791285797,342.26970113083956,336.4705364445181
722.0,330.67287382333757,342.7826748267515,336.9764021902116
723.0,331.1648359994449,343.3259219581704,337.48405193003356
724.0,331.66847882944376,343.86288245766895,337.9943864462634
725.0,332.191064055024,344.4105719813053,338.5035921847498
726.0,332.6843316288896,344.9485641086614,339.00985371307394
727.0,333.1853307743462,345.46472336737673,339.51686388027366
728.0,333.69050784842796,345.9752482157177,340.02421189804346
729.0,334.2024171625635,346.49590230150613,340.52245763356734
730.0,334.70995384382303,347.0154920168617,341.012501786701
731.0,335.222613058118,347.5134124332876,341.4945213819047
732.0,335.7043191591602,347.9993396073161,341.97008299951057
733.0,336.20832193889873,348.45274140793134,342.44720087201915
734.0,336.72658630593435,348.9338082614588,342.931810154904
735.0,337.22679300931037,349.4196646991652,343.41948686918624
736.0,337.72980470371886,349.8753703072807,343.91166115181903
737.0,338.22791673347575,350.3334808570869,344.4065770261834
738.0,338.73509626698666,350.79912828608656,344.90258990058584
739.0,339.22534346145096,351.2719341359777,345.40263298259885
740.0,339.7177942198001,351.7395238053799,345.9048196084384
741.0,340.2060933741739,352.2030697715912,346.40684026275306
742.0,340.6884500743284,352.64150066708453,346.90943711655905
743.0,341.14884935775285,353.03805087530293,347.4126595530296
744.0,341.5891627068373,353.4927578394744,347.91806602303507
745.0,342.05970173844815,353.992795897075,348.4251350603844
746.0,342.5363651935149,354.48368250737434,348.9319980424008
747.0,343.0146470788422,354.98233572407395,349.4420257234406
748.0,343.48199827931103,355.4749741582503,349.9528090303604
749.0,343.9181291565972,355.9543712031236,350.461997766606
750.0,344.4222144371525,356.4291516966816,350.97066675830354
751.0,344.9255289249981,356.90619629895554,351.48183285700156
752.0,345.42942244303157,357.39696051905867,351.99572233571064
753.0,345.89486120216526,357.85287777503726,352.5050819477494
754.0,346.3571824873353,358.3422784939153,353.0128285768109
755.0,346.81331345011927,358.8361424801895,353.519818516889
756.0,347.2329281093318,359.32954032958725,354.0251048123219
757.0,347.6854285666694,359.8293407264609,354.5280615511144
758.0,348.1422362568483,360.36308995886014,355.02652818484717
759.0,348.57003804963756,360.88852953670323,355.52177306422936
760.0,349.00504012268243,361.4041639396922,356.01114853042606
761.0,349.4252308266421,361.914915564831,356.4950770971928
762.0,349.8861642495284,362.4151048227005,356.9830977140591
763.0,350.3613206062277,362.9213861210064,357.47763782879605
764.0,350.82977571865985,363.45720987041267,357.97394766347475
765.0,351.3029472574706,363.89368262514483,358.4696652185748
766.0,351.77510865791214,364.40175487058247,358.9627729062223
767.0,352.22031789313513,364.89477266767307,359.456857601334
768.0,352.6720629888701,365.3986872977159,359.95417232113266
769.0,353.10848556681515,365.91634230503826,360.4522796435669
770.0,353.52997185802997,366.46962970637264,360.9521091178554
771.0,353.94933723722795,367.0073602606125,361.45563281211565
772.0,354.36869132655886,367.55183119456063,361.96055291884727
773.0,354.8026129814864,368.0952468013322,362.46675559625646
774.0,355.2608630287156,368.64669732247256,362.97504359658046
775.0,355.7197626191189,369.1848174430524,363.485248190047
776.0,356.16068284048674,369.7182272939338,363.99521896967724
777.0,356.5951000498279,370.2441791359522,364.50820160317306
778.0,357.03777085160345,370.7680928386795,365.0207264214339
779.0,357.504398758474,371.3067371876026,365.5304977229599
780.0,357.98137661587185,371.83373110485735,366.03997170288454
781.0,358.45933284187663,372.35459444613434,366.5497109602269
782.0,358.95675326493773,372.87802723030796,367.0479753781007
783.0,359.45915410009883,373.39763943023985,367.54369418175236
784.0,359.96199398861705,373.92095768627485,368.0279233915265
785.0,360.46598951573225,374.44282657816314,368.50731361986595
786.0,360.9760306739013,374.9419110278669,368.98540807464315
787.0,361.4871710938771,375.4594681189699,369.4581697731892
788.0,361.998341199767,375.98168915743014,369.9301603386475
789.0,362.5110900558365,376.4984092357569,370.40893897063717
790.0,363.0167007950038,377.00576572292726,370.88693930785234
791.0,363.5219044446197,377.5158680897626,371.3726823922396
792.0,364.0340637529359,378.0292627456785,371.8609124021245
793.0,364.55554687087624,378.538363916434,372.3468546178452
794.0,365.04653666534426,379.0529413695704,372.8358801943835
795.0,365.55861870764255,379.55868614271293,373.3238298142839
796.0,366.072169681247,380.04676382338636,373.8161960120704
797.0,366.5907075024765,380.50729131728184,374.3086776365655
798.0,367.133305372642,380.9290371080186,374.80384999416725
799.0,367.66803732009333,381.3667369801854,375.3019936609444
800.0,368.2141955940538,381.86021005203486,375.8073613735434
801.0,368.7509940924445,382.36103203678044,376.3141959404657
802.0,369.27786597435556,382.89237497197473,376.82662399901443
803.0,369.79471553255064,383.4344256914967,377.33835380879754
804.0,370.3056627811278,383.9461838357408,377.85236980017703
805.0,370.8081469383646,384.4801334353561,378.36660389578526
806.0,371.3159543750501,385.01802097484483,378.88259419365926
807.0,371.84008667801004,385.55654705547744,379.3997639771155
808.0,372.3321062927107,386.0945354150121,379.9161100339977
809.0,372.83325846772834,386.6283760115413,380.4308182714458
810.0,373.34094428474043,387.1543748682623,380.9465708455085
811.0,373.85090001531137,387.6824513375901,381.462977133742
812.0,374.35367148484295,388.21843588768763,381.9797368190082
813.0,374.85500103421003,388.7527925732711,382.4938783965505
814.0,375.3449570001844,389.28261947259796,383.00849287727146
815.0,375.8368695735671,389.8151276256775,383.52252033947684
816.0,376.3265137836915,390.33909802317646,384.03342548710526
817.0,376.81638156488265,390.86238049603327,384.5387803543851
818.0,377.29128117177595,391.38990796606083,385.03815193361663
819.0,377.7687769392688,391.9198754531264,385.5308780743914
820.0,378.21155840653887,392.440890676908,386.0250084511769
821.0,378.6242470986159,392.9786667915739,386.51611923162164
822.0,379.06207520639947,393.4969694483772,387.0067596729424
823.0,379.499287730441,394.00267994765915,387.492540054199
824.0,380.00739198167065,394.5007211790865,387.9840429807915
825.0,380.5262452226221,394.99028554640967,388.47630268954964
826.0,381.03646846578414,395.494895976952,388.9700618821945
827.0,381.54384182271275,396.0078233291118,389.47074265265456
828.0,382.0505272222912,396.52306247296997,389.9751658596945
829.0,382.55256727456543,397.036127995169,390.4793609325135
830.0,383.03831451349157,397.5525731506969,390.9851125303298
831.0,383.52310607837944,398.0634434532446,391.4897261905192
832.0,384.027782928629,398.57821965479076,391.9955606537143
833.0,384.51357066340944,399.0919584074711,392.5029822717275
834.0,385.0052248975794,399.59800216380523,393.0114199470302
835.0,385.48130350526156,400.11622486905213,393.52047395262144
836.0,385.952199262797,400.62687343967167,394.02605467200533
837.0,386.42951257026954,401.1365017566715,394.52183210290383
838.0,386.94533556567006,401.65367177141616,395.01728429060734
839.0,387.43144192268807,402.03659423529655,395.50824571903576
840.0,387.92286792411204,402.4095832790948,395.98987368119697
841.0,388.40581685929527,402.7935915113009,396.47323780956697
842.0,388.9040160704121,403.2913291440417,396.9543386016985
843.0,389.3857217726597,403.753067132293,397.43933845413903
844.0,389.8797745962088,404.27269453751177,397.9288806494965
845.0,390.3882705900977,404.7652068317567,398.4234194682926
846.0,390.89463289682016,405.24582361146827,398.9198537111788
847.0,391.3740450990266,405.7242655251177,399.41911180487017
848.0,391.8609586809362,406.19994138992644,399.92137613765635
849.0,392.3788478176548,406.68408123710446,400.42138367013166
850.0,392.88141782944285,407.1649426438126,400.9241415232427
851.0,393.41736750121424,407.6379075813808,401.4252866097399
852.0,393.96305264831017,408.07207788818073,401.92921543017843
853.0,394.4973288418791,408.5096349194043,402.4368813514076
854.0,395.02843389689417,409.0184887009954,402.94436204310256
855.0,395.5633228539788,409.47914439043285,403.45021653757334
856.0,396.08984726942566,409.92702428186567,403.9577684483097
857.0,396.61701741536336,410.3825352135303,404.4643720137183
858.0,397.1510674406025,410.8305524250238,404.97002396203413
859.0,397.6711617779192,411.27838175447675,405.4803485432761
860.0,398.18089350670766,411.69887027722336,405.99025904273304
861.0,398.6943721030974,412.1593135981613,406.50107926071854
862.0,399.2092232772983,412.58381960701917,407.0119662573424
863.0,399.7218966447441,412.98162805208955,407.5224404228922
864.0,400.24453533802836,413.4498984800025,408.03239025201253
865.0,400.77373705565884,413.9591670801395,408.5422639772153
866.0,401.3008534284514,414.4822719945337,409.0488647492637
867.0,401.8402607375146,414.98524775588857,409.55418105487877
868.0,402.36890707376836,415.44957882240385,410.05340536700953
869.0,402.9048598192814,415.9463031480947,410.5530595252925
870.0,403.444029841539,416.44022055351377,411.04671430250403
871.0,403.9808751692991,416.94001320429345,411.542796670933
872.0,404.51594447804104,417.4461000190486,412.0349523336087
873.0,405.0617579974043,417.9159266679475,412.5258138477092
874.0,405.6026250783955,418.40659728911675,413.01817656159795
875.0,406.1367694036681,418.92580720972006,413.5119113318101
876.0,406.6536618760852,419.44783951010527,414.0030871815458
877.0,407.1533344213543,419.9680224302711,414.49507141958793
878.0,407.61534250347825,420.5004805652515,414.98568760475837
879.0,408.04431188869006,421.0422747769856,415.4787820069921
880.0,408.4990293298377,421.5835458585431,415.9763616449871
881.0,408.99471196056055,422.132408207664,416.4725702793652
882.0,409.465437890293,422.681660586856,416.9691302564745
883.0,409.93743073709487,423.22814076845503,417.46709048703707
884.0,410.4011431370624,423.783102831477,417.96746430088496
885.0,410.8707645658631,424.3365920946744,418.4685249149017
886.0,411.3596226705279,424.8906453329042,418.9681684237847
887.0,411.8528313614353,425.44009246424974,419.474074907931
888.0,412.3476477195061,425.99189549262604,419.9815257581221
889.0,412.861652409003,426.52832783612394,420.48154362444325
890.0,413.3831940762786,427.05447587742674,420.9822179649147
891.0,413.9211162549973,427.5829498512435,421.4824708532399
892.0,414.4513499828981,428.10799279956353,421.98483784542327
893.0,414.99409087941456,428.6370199901096,422.4858605344294
894.0,415.5231465345033,429.16729747895823,422.9837925621977
895.0,416.0373849826025,429.6723482438849,423.4809041742008
896.0,416.4842459517273,430.1904446137903,423.9799680681091
897.0,416.9690593300199,430.70803283388466,424.47478115011177
898.0,417.4928120152534,431.1662442438302,424.96364036004053
899.0,418.01588367684957,431.6266125586766,425.4462100660953
900.0,418.5108781804821,432.09246274019796,425.9342772711148
901.0,418.8540939226469,432.5637819031204,426.41784364787685
902.0,419.2116522525369,433.0395264702171,426.90405074439354
903.0,419.58720312877807,433.5448541106281,427.38797439324185
904.0,419.9814490538185,434.0517019235293,427.87488038361727
905.0,420.3619615975443,434.53888016026207,428.361984129841
906.0,420.7681061456587,435.0338334901535,428.85029689217686
907.0,421.20854320619037,435.4704551093021,429.34330623518014
908.0,421.6647738995335,435.90687711117994,429.8397956461526
909.0,422.1366507119594,436.33831659416177,430.3422731754865
910.0,422.64430498545545,436.77919151181794,430.8449048893278
911.0,423.1618318557904,437.23329338740353,431.3496415221903
912.0,423.67696831031253,437.7287975197591,431.8541789029039
913.0,424.1818137027325,438.2368362804086,432.36452557315675
914.0,424.6787734503952,438.73715054915255,432.8787770359875
915.0,425.17538244989015,439.2419578937997,433.39466607336664
916.0,425.6651863832889,439.7467772594906,433.91011154321984
917.0,426.1635074314104,440.26524586798655,434.42823613112625
918.0,426.66803814186727,440.7821410487479,434.9475847331334
919.0,427.1620321416274,441.2834008136628,435.4640300363561
920.0,427.6659435750219,441.8042801444579,435.9802009983165
921.0,428.17274212330125,442.32299606170943,436.4961139498851
922.0,428.6778482728732,442.8449368622966,437.01531472948204
923.0,429.18367877953693,443.36550993742225,437.53305277417337
924.0,429.6742235876341,443.8969444143729,438.0473000080935
925.0,430.19404329806804,444.41836901066625,438.5558614694311
926.0,430.7140167035698,444.9266588672364,439.05412061709853
927.0,431.23647835868184,445.4489180766649,439.5541988806488
928.0,431.75785952684475,445.97274617503837,440.047681468129
929.0,432.2752031677124,446.4863104132118,440.53941238506104
930.0,432.78359105977006,446.9927976356584,441.02273534546856
931.0,433.3063950552187,447.4804650006837,441.5034575309348
932.0,433.82448126351466,447.95611833273875,441.98733396868124
933.0,434.340869909178,448.40943566667823,442.4718187758439
934.0,434.8672930389061,448.8881252657643,442.9581992479389
935.0,435.37391465321406,449.39245926396023,443.4471059266457
936.0,435.81191493255307,449.91408061753526,443.93904183474376
937.0,436.27412319476934,450.4365877020176,444.43320843270635
938.0,436.77819109871734,450.96177275250466,444.9306499630152
939.0,437.3004171439352,451.4884084659213,445.42933093157717
940.0,437.8115609081111,452.01084019176227,445.9351621647562
941.0,438.3137091869184,452.52944905117187,446.44133383397354
942.0,438.8356410678917,453.07176782133325,446.95017890871844
943.0,439.3560581618732,453.59876463746684,447.4631214352532
944.0,439.88454609105344,454.11789789732114,447.97059804369235
945.0,440.41295976039004,454.6416695815468,448.47605699895337
946.0,440.93539003476945,455.16284485164135,448.98858343242
947.0,441.4782035935784,455.6815407448708,449.5017926825432
948.0,442.01710735310314,456.192732550607,450.01497064929225
949.0,442.547012017227,456.709221366302,450.5316887330481
950.0,442.92226615913654,457.2204581304364,451.0433049194076
951.0,443.44007295929805,457.7526097917933,451.547916790639
952.0,443.9840938196771,458.2946401854352,452.04694190477073
953.0,444.37348530921594,458.82567692515244,452.5426517710525
954.0,444.79702892506936,459.34782553491686,453.0361045520195
955.0,445.2224644032281,459.85920704438155,453.5298458728802
956.0,445.7153454539946,460.3678945271884,454.0222098205665
957.0,446.19366214735646,460.86117214348207,454.5085362867154
958.0,446.6683948790769,461.3340255312556,454.99725160422264
959.0,447.18326561373175,461.78552790229014,455.48687413330214
960.0,447.670959500463,462.201605973768,455.98103959999736
961.0,448.20816923622954,462.6223884368855,456.48493848742584
962.0,448.7440726144936,463.0681827990482,456.9888319172724
963.0,449.26750980258896,463.5211121588903,457.49176433100206
964.0,449.79039279154244,463.99243405566824,457.9929204276364
965.0,450.3035868959918,464.4751174763175,458.495259558321
966.0,450.82919796182983,464.9520802537472,458.99930066576616
967.0,451.34314299013676,465.43166567483723,459.50890671606504
968.0,451.8544281150934,465.9263478957586,460.01818490490217
969.0,452.34799287648616,466.4296588353747,460.5279590928851
970.0,452.84497946335676,466.93278482434846,461.0346293900122
971.0,453.3434748115644,467.4375147170135,461.54002050446
972.0,453.84066888932114,467.9405437629441,462.04609882343857
973.0,454.3316862379408,468.4365986859756,462.5544008457136
974.0,454.856485057927,468.93130989105947,463.0615891891819
975.0,455.35714147110446,469.4223569755889,463.563448727907
976.0,455.8475165196925,469.91150049376347,464.06581991288255
977.0,456.33561830638183,470.39898200888933,464.5644451825755
978.0,456.8348630831644,470.9070299750688,465.0610032299132
979.0,457.33564992985896,471.41218341792285,465.5557166759657
980.0,457.82063072283495,471.91147862389965,466.0484817930457
981.0,458.31740298424126,472.4053139862982,466.5464882466489
982.0,458.817499739751,472.9098598598671,467.040258078868
983.0,459.3462124983126,473.42386247134357,467.5325515308616
984.0,459.84950820772184,473.9376768849074,468.02241083114063
985.0,460.359271767223,474.4393409325747,468.51257230534344
986.0,460.84394079477966,474.92952013140365,469.0019734493071
987.0,461.3391842682401,475.4202534642961,469.4939717433479
988.0,461.8377055684917,475.9107873245311,469.9834633615021
989.0,462.3400797244997,476.3976758677169,470.47587151322716
990.0,462.8346320925697,476.88819216009983,470.96715193509647
991.0,463.2493696393211,477.38289361446687,471.457690219648
992.0,463.67601776987766,477.87244833746286,471.9503365961501
993.0,464.12171743899336,478.32196727299424,472.43811449449714
994.0,464.57336685638626,478.7747327413812,472.92300889919517
995.0,464.8687801507625,479.12643239202737,473.40976428182955
996.0,465.1925668546136,479.5566059291223,473.9032119719299
997.0,465.5086321240079,480.0797827518429,474.40002763537206
998.0,465.98205212472914,480.6029737667973,474.89860611368505
999.0,466.29987009040985,481.1298799145129,475.3987348066023
1000.0,466.62745763145364,481.6673097150447,475.90566011483105
