"tick","Min Size","Max Size","Mean Size"
1.0,1.009495127829723,1.0099895140947774,1.009865627474232
2.0,1.0252677254681475,1.0297184695117176,1.028191028486954
3.0,1.0496902986359784,1.0559766513830982,1.053433754680002
4.0,1.0789664254547096,1.0917352089611816,1.0854603087950911
5.0,1.1158947985782286,1.135693133038003,1.1234883934873217
6.0,1.155537147272844,1.1812831326038575,1.1673599658476839
7.0,1.203784242789261,1.232714932435192,1.216874458531842
8.0,1.2603394714347087,1.2894905891781672,1.2726552499131156
9.0,1.3212615033262407,1.3533186111273243,1.3333965156429377
10.0,1.3861945061571896,1.421285316743888,1.399975411865562
11.0,1.4536604277580045,1.498987439989578,1.4725851249023565
12.0,1.528307872845326,1.5856928836088628,1.550433532946003
13.0,1.6096535311359914,1.6688297126698308,1.6333968130562504
14.0,1.699617938094307,1.7616128815663978,1.7241611655738125
15.0,1.7887013587797993,1.8574193685734646,1.8179193952918815
16.0,1.8850951961055402,1.961192589350976,1.9184868759943638
17.0,1.991049493958708,2.066230200799182,2.0243512775971646
18.0,2.1016102639376184,2.176767115800176,2.1367546907517436
19.0,2.212959326549899,2.2953118194732816,2.2538262242909446
20.0,2.331236584635917,2.4180994916823697,2.3760390195402206
21.0,2.4511172367795373,2.554215262562502,2.5061830175358337
22.0,2.5763748451601716,2.692873188864905,2.6384232059275288
23.0,2.7067683263286018,2.831262690853327,2.776781926737006
24.0,2.8564697490795514,2.9768417964712715,2.917699268485712
25.0,3.000089877678547,3.127415990380104,3.070484945404654
26.0,3.1458218634594233,3.2830641075503078,3.2197679752784527
27.0,3.2986452518100853,3.445945673717651,3.3775030221708033
28.0,3.4577976734004916,3.619518865498248,3.5426796419048014
29.0,3.6179994476377035,3.793036449949722,3.711102357432657
30.0,3.7878253063210288,3.972434937600046,3.8810573542689286
31.0,3.9607482077274474,4.1593155972543165,4.062483905615284
32.0,4.141721953956877,4.341875239214859,4.251512982656382
33.0,4.331388718890958,4.5373619337962,4.440747519690971
34.0,4.528160383498762,4.730071177058853,4.642738272831775
35.0,4.732221454381944,4.929255293861497,4.844940741147043
36.0,5.00659478670219,5.135959059353918,5.062600478198147
37.0,5.225196360931731,5.3466458427137695,5.278932040776126
38.0,5.4434376389603125,5.566899739212822,5.49832592320803
39.0,5.671102856167128,5.795952674166765,5.721893425493035
40.0,5.908749112163204,6.026510651470161,5.959417049489372
41.0,6.138330856661778,6.264236925600562,6.19488169609375
42.0,6.375843988284468,6.509402214845176,6.435014083853456
43.0,6.612477108819875,6.752666916938032,6.67908876407969
44.0,6.857724545761011,6.9977324664150355,6.92996970749266
45.0,7.1168061262741675,7.21731980043929,7.174581730064469
46.0,7.370469218266662,7.48128864854807,7.442990616021367
47.0,7.648087172773666,7.748180712475441,7.713300900639345
48.0,7.92552682980895,8.023531092933846,7.986651480795505
49.0,8.20267843520036,8.299794580007438,8.265520404796115
50.0,8.48264976846287,8.576335381234529,8.5294925748487
51.0,8.7679041875666,8.87874215016607,8.823323168866334
52.0,9.052653725401033,9.181338287191464,9.116996006296247
53.0,9.349391440828331,9.349391440828331,9.349391440828331
54.0,9.660834416220895,9.660834416220895,9.660834416220895
55.0,9.971656762636266,9.971656762636266,9.971656762636266
56.0,0.0,0.0,0.0
57.0,0.3259700506809167,0.33349497848656035,0.32957668938674034
58.0,0.6528312642476521,0.6643215441936628,0.6574028496345272
59.0,0.9801079705590381,1.0005981362983585,0.989159048133879
60.0,1.306188032128848,1.3752265842421914,1.3274308655632194
61.0,1.6327257130038921,1.720959813364316,1.668761440529488
62.0,1.9756689677364194,2.0740814553387468,2.022477504048147
63.0,2.3134321138611997,2.4322998742084025,2.378027082575718
64.0,2.6508420090912845,2.7941778713092216,2.7322771126066803
65.0,3.0047437863494273,3.152505864303094,3.091952078060131
66.0,3.362825982975774,3.5382508419523955,3.46045225889131
67.0,3.7293983458727604,3.9256721857422967,3.8373643533338324
68.0,4.112104658370373,4.311992752552033,4.222327715576394
69.0,4.489900496010669,4.702850008315873,4.609774165055715
70.0,4.874367320227903,5.089757623167244,5.005236103020724
71.0,5.4020313153835,5.501637596255169,5.447552876175226
72.0,5.842347677310462,5.912223377060146,5.877285527185304
73.0,6.2447622563806355,6.324627484234516,6.284694870307575
74.0,6.655809155260212,6.729340058374219,6.692574606817216
75.0,7.06319428639952,7.166709418171086,7.114951852285303
76.0,7.490545424877199,7.604713761322201,7.5476295930997
77.0,7.905974338075611,8.036708960526157,7.971341649300884
78.0,8.350994747446384,8.472383978536818,8.411689362991602
79.0,8.797707788476254,8.899119897459169,8.848413842967712
80.0,9.243879107576793,9.33490243217908,9.289390769877937
81.0,9.696957009702453,9.795896366399248,9.74642668805085
82.0,0.0,0.0,0.0
83.0,0.4527370059047826,0.47219385137781494,0.45964547695941294
84.0,0.9044691467122172,0.946584668480791,0.9248983529347202
85.0,1.3710363989369945,1.4400391144119202,1.4008655622936201
86.0,1.847867110490333,1.9255541256233117,1.8811891053360885
87.0,2.3348339649359695,2.439583354855422,2.3675295383177164
88.0,2.826283717248588,2.9366375985881317,2.858869596875738
89.0,3.3103929696185515,3.3666313475207423,3.342700681700371
90.0,3.8033250245498493,3.897213911868166,3.847350783960428
91.0,4.295164106960875,4.385036614497658,4.340246331194882
92.0,4.805240694268141,4.900905295719857,4.847320770531892
93.0,5.318564708572812,5.408029493754729,5.359623644341713
94.0,5.824590376187116,5.923279517083428,5.8801488616135895
95.0,6.38617002865765,6.4444748261780465,6.415294524226337
96.0,6.90072144774487,6.966982239889913,6.9411955397069685
97.0,7.412263875415081,7.49842170814518,7.468425309283193
98.0,7.928306072140111,8.029922456680799,7.996081995779532
99.0,8.465860267826354,8.56277421753388,8.529568558461031
100.0,9.009395571032071,9.104931397968905,9.071370654982747
101.0,9.626403827629982,9.662252056961881,9.639417008687742
102.0,0.0,0.0,0.0
103.0,0.5474349284707569,0.5887660333607345,0.55941148615287
104.0,1.096312809812371,1.2049934589699842,1.1240626923199413
105.0,1.6547691429196858,1.7456095828535034,1.6886631735018458
106.0,2.2173409694945434,2.3251235998095945,2.2560844717877493
107.0,2.7877324080420665,2.905753350676969,2.8299740254059436
108.0,3.3567358109727508,3.487183716313448,3.4041790945049275
109.0,3.942942117513158,4.095106169227511,3.99663778518637
110.0,4.529889310030267,4.6822500629490245,4.589975952879371
111.0,5.118388260235079,5.296481245872565,5.190415388418156
112.0,5.713267882897052,5.910773158764933,5.800895669987075
113.0,6.330499677842016,6.541478830920532,6.412876730913123
114.0,6.945834491546265,7.162083046883344,7.027225867250402
115.0,7.599627554165198,7.788583947857841,7.669248006485869
116.0,8.248304326552896,8.426231737888884,8.312607416633515
117.0,8.877216693458612,9.09033655665815,8.961165439443196
118.0,9.512766820576507,9.660965549538378,9.57717181001033
119.0,0.0,0.0,0.0
120.0,0.6363649317203088,0.6793021806934848,0.6527242752092425
121.0,1.274800033711363,1.3452147696353496,1.3030475478958106
122.0,1.9081003161007541,2.0198701102286574,1.959528552206
123.0,2.5477177324076186,2.7120982880983497,2.6206693056486543
124.0,3.2015758086834105,3.4038290864904406,3.29036165457611
125.0,3.8681471914891152,4.09386811452452,3.9647150399016318
126.0,4.5257434480800285,4.7964843797776835,4.638357455676305
127.0,5.191638853782787,5.484482996789738,5.317609870190645
128.0,5.852533401497639,6.172168031507171,5.999176961942284
129.0,6.527168459901585,6.872178776427171,6.689004404254956
130.0,7.202228855011052,7.589977666828781,7.384426368320516
131.0,7.882519062701611,8.29592743193265,8.089637107211473
132.0,8.575432620923966,9.005361969140358,8.801112903038971
133.0,9.27040045851143,9.748135407671798,9.517162889893786
134.0,0.0,9.990787056901025,0.2978082752216664
135.0,0.0,0.7866559582413175,0.6237554412192228
136.0,0.7030241849762389,1.6117032079957427,1.3411282207922646
137.0,1.4047712397878058,2.352635032911785,2.0784969400375677
138.0,2.115162273175083,3.079783086210955,2.813815550107679
139.0,2.8266587827308105,3.815196907289792,3.548699714454462
140.0,3.5504499541502446,4.566705515007489,4.295931362100775
141.0,4.274669380674604,5.3334451578836894,5.032250929122493
142.0,5.006367245693691,6.100396607469302,5.774178264129443
143.0,5.745856126374565,6.866635776341428,6.521536839589486
144.0,6.48611513134092,7.6407286528940315,7.28261435737426
145.0,7.2299577188701365,8.427478896812536,8.047531005736795
146.0,7.982469724414404,9.208442204673775,8.81114688497513
147.0,8.752653081521858,9.995038855236489,9.571899002063086
148.0,0.0,9.800813592879567,0.3381737870816551
149.0,0.0,0.8279373098234644,0.6523269585633155
150.0,0.7695863577513956,1.6381296841008588,1.4398100611254903
151.0,1.537651381625328,2.457382806381211,2.2239533442616874
152.0,2.31036097653443,3.27889280148549,3.018207859112762
153.0,3.0892334450618364,4.087521468384656,3.799958299101476
154.0,3.8721502013737337,4.881767040828707,4.589257320070283
155.0,4.662375011167023,5.686153335021807,5.3818888175902515
156.0,5.451601386826951,6.509957156865855,6.1792766463715045
157.0,6.246995503059588,7.3374944621394365,6.991752018022931
158.0,7.046483277755323,8.163412612851241,7.805157393634628
159.0,7.850946399527601,8.980477134308309,8.612433062910444
160.0,8.658000359069554,9.798797056032342,9.42781342764579
161.0,0.0,9.677718445388601,0.2747079460222476
162.0,0.0,0.8481809604470621,0.7067846433419205
163.0,0.8048233153112234,1.6745146258105523,1.520145114905538
164.0,1.6120742054656145,2.514608733926435,2.33480247015057
165.0,2.421238686321303,3.346260859020986,3.1520598461420124
166.0,3.2345672509493304,4.1757890854403374,3.973560970708222
167.0,4.054333850026596,5.005554645822848,4.79543742227677
168.0,5.686008559593465,5.792374517288993,5.75213097646658
169.0,6.489504896849394,6.623900300536772,6.5760098873276736
170.0,7.295216049249285,7.462738996518312,7.3928764575060155
171.0,8.105327466500459,8.312252461686732,8.228974857415695
172.0,8.921897401399912,9.16814452058403,9.070127517374544
173.0,0.0,9.97200324575184,2.8160950421408883
174.0,0.0,0.8675581113388758,0.28618893495388326
175.0,0.8369919469370505,1.734154724869877,1.072552758331488
176.0,1.6902871464844789,2.6098674239241517,1.9330563764949327
177.0,2.551310637181159,3.4957759736641307,2.8228071960694665
178.0,3.41129678208381,4.3822550669382325,3.720503855351824
179.0,4.268756322297269,5.233199384985491,4.547263141089061
180.0,5.139377868298908,6.12358950832393,5.427858314633776
181.0,6.02439981796546,7.0189344898355195,6.3404461553064175
182.0,6.910440103909933,7.925343211113941,7.230194030052517
183.0,7.790032109783497,8.835595467893873,8.127739712978446
184.0,8.731470274806487,9.75236665468663,9.0900312565205
185.0,0.0,9.769301755777558,2.767873996324073
186.0,0.0,0.9223480043187742,0.2839717999518977
187.0,0.9028192883287555,1.850179804756772,1.2018147147852318
188.0,1.806242302944883,2.7896218720148322,2.1583220442755215
189.0,2.7306958147278046,3.7239187424699773,3.104124625073373
190.0,3.6590924276993615,4.661923482064158,3.98786048449171
191.0,4.581827875708695,5.602065509180537,4.893300738684324
192.0,5.509924334050156,6.5437630968866864,5.80203895235534
193.0,6.438720679988619,7.493368071652948,6.748211522909391
194.0,7.369585773400031,8.459129060106351,7.7480653173362795
195.0,8.308587177323643,9.445916302767582,8.706474880746237
196.0,0.0,9.506935877695213,3.0445190479135062
197.0,0.0,0.9800583062320951,0.27672433307873906
198.0,0.939860236295499,1.9663702354975974,1.249627361535006
199.0,1.8882486543105914,2.948698998023756,2.2426243038529745
200.0,2.8458466376294376,3.948698998023756,3.2215121881491764
201.0,3.8041921697743253,4.948698998023756,4.182115738865257
202.0,4.776152647798883,5.948698998023756,5.175845432309721
203.0,5.734914679783396,6.948698998023756,6.166807656336024
204.0,6.699467313813511,7.948698998023756,7.168517088536861
205.0,7.66765560026979,8.935542005335446,8.140972672891804
206.0,8.66765560026979,9.935542005335446,9.140952451416544
