"tick","Min Size","Max Size","Mean Size"
1.0,1.009365772139281,1.0099804341630079,1.0098360294643791
2.0,1.0256035343836993,1.02939300974831,1.0280610837438142
3.0,1.0502723766979762,1.0579588280362076,1.0542964534994679
4.0,1.084149553575553,1.0929504720214753,1.0871197429366874
5.0,1.1214257600484416,1.135488273021765,1.126932943229098
6.0,1.1630669262679294,1.1794090425083414,1.1710069857896306
7.0,1.2105615950934587,1.2340375111508184,1.222420308561297
8.0,1.2658755820407532,1.289911826492753,1.2805434133124072
9.0,1.3268420346430503,1.353141560428776,1.3433736950706225
10.0,1.390082328794524,1.425207668726798,1.41107773210085
11.0,1.464540361906402,1.5070888726459815,1.485732082635397
12.0,1.553529661865905,1.5878621790441683,1.567610098458128
13.0,1.6389632488950157,1.674682121335063,1.654732100435067
14.0,1.7298783058556728,1.768164642434567,1.7473099047830327
15.0,1.8287391516845672,1.864115261279512,1.8440264084537046
16.0,1.93151695698034,1.961987954515498,1.9460634205057286
17.0,2.0368258987553416,2.0663072811905296,2.0551119349531364
18.0,2.1503461609268557,2.1906731063430196,2.169990424671443
19.0,2.2667669263295824,2.314265915469732,2.28987945671496
20.0,2.393952847591135,2.441730796499178,2.415067609149264
21.0,2.5273756984621287,2.5741386257391423,2.548603216893272
22.0,2.660734061577823,2.717312910004985,2.686693725073943
23.0,2.8039734163531103,2.8581659991969355,2.8316288181380367
24.0,2.951407220824622,3.006973074777052,2.980250959685538
25.0,3.098897501749452,3.161600430917461,3.13227374370466
26.0,3.2558501579496077,3.316660525624175,3.2886032699956553
27.0,3.4192878337064756,3.483831016041804,3.4528780913464723
28.0,3.583211767950561,3.6519969686958937,3.6204498340163846
29.0,3.752049266397953,3.82719064075267,3.796469194079516
30.0,3.938219481166452,4.012532114572823,3.9763985711687706
31.0,4.130973275096621,4.212308628885076,4.162346651868894
32.0,4.3185751991858705,4.409811575873755,4.355507348593558
33.0,4.5220467047346755,4.615351552497596,4.55349704060005
34.0,4.718206637327094,4.837509968644008,4.760123659366741
35.0,4.930851747563574,5.053274834067561,4.971809746932936
36.0,5.145307407369837,5.264938111898955,5.183236783742671
37.0,5.355603151586837,5.485416928194463,5.399529311486752
38.0,5.570884156413376,5.718849881927017,5.624190513784298
39.0,5.7932033005845724,5.9486853936105035,5.852708451428915
40.0,6.019321779604069,6.184062496139668,6.0813103143004685
41.0,6.254655399303882,6.437893773289398,6.319659062218153
42.0,6.49325278314296,6.690736688098405,6.567387926131719
43.0,6.737685128250158,6.951857453766279,6.816336082045455
44.0,6.990482897425535,7.212813696532976,7.072098247006069
45.0,7.252393625213298,7.474772611639928,7.334271159552969
46.0,7.520135218629147,7.741415167378727,7.598389756171963
47.0,7.7894973149965505,8.016089374080765,7.872645662550348
48.0,8.073471059126312,8.309409502940252,8.153331189770949
49.0,8.359345991408917,8.612703328893986,8.442182462482945
50.0,8.638821999512146,8.909108973222319,8.73065844670264
51.0,8.935072357677853,9.210568130910396,9.02954192016716
52.0,9.235511224947404,9.515775066290516,9.330276873927795
53.0,9.540862541766836,9.820538214938715,9.63103964603087
54.0,9.84680121570127,10.133991681360639,9.93815128024621
55.0,10.153849781805182,10.449852958123664,10.2513268866851
56.0,10.47259788427036,10.770695400035473,10.574377210146046
57.0,10.798222398366777,11.099951890667434,10.903087319713784
58.0,11.146893865712917,11.436511640378738,11.237980823491467
59.0,11.476142669585531,11.773095837105064,11.573413801416521
60.0,11.818593072877263,12.11613367123762,11.915875234660225
61.0,12.169766129609195,12.461957720590288,12.26219912134693
62.0,12.515225354975552,12.818771231337449,12.610430442410287
63.0,12.875713890346233,13.17251053608488,12.968714789077639
64.0,13.229389039983507,13.544722880930637,13.334444043282652
65.0,13.595561793567613,13.923268966055472,13.701553491043157
66.0,13.969601778825746,14.307123870577195,14.073176987612852
67.0,14.346076385525523,14.691142730272839,14.453133026884867
68.0,14.716518989899198,15.07769054449396,14.836806206127163
69.0,15.100328188443093,15.470210375965104,15.225764102405401
70.0,15.493234743129,15.858391226718664,15.6238420253403
71.0,15.880954277482818,16.261673926101064,16.020653748881305
72.0,16.283311979386493,16.665475971035193,16.423780500531894
73.0,16.682827597649304,17.072383471226786,16.83329609768209
74.0,17.098679046852048,17.500788936226165,17.253910219007405
75.0,17.511758382499682,17.920501184740573,17.671200809828008
76.0,17.929693223962094,18.35231451582164,18.093551354330963
77.0,18.348181782539466,18.7923675185442,18.521206533526534
78.0,18.77071534408256,19.230143653897105,18.956508734256495
79.0,19.198880896018814,19.67075299847871,19.3958899344136
80.0,19.62913105488056,20.116139808292502,19.83842464907467
81.0,20.08451624659821,20.564665901833216,20.287080405200133
82.0,20.54145006801467,21.016464778229132,20.740879130830987
83.0,21.008889787842048,21.474769104621377,21.198706264202478
84.0,21.47925374259706,21.939408427947203,21.6648977571947
85.0,21.952942558778442,22.411829310276083,22.136623001630184
86.0,22.43602303403662,22.91059697125806,22.61388535804348
87.0,22.916021874204738,23.418618860638237,23.0989706655906
88.0,23.400691401029466,23.91296916057123,23.584385525051733
89.0,23.886129964208223,24.41321731374832,24.080261811424975
90.0,24.375630963267753,24.92497446113499,24.576562284000683
91.0,24.882298035228153,25.421607874822804,25.07891933177458
92.0,25.392069605526043,25.922029469420668,25.583261443148597
93.0,25.91731071340618,26.426653171088546,26.095342417832697
94.0,26.43005258120131,26.956001763683744,26.61241353724664
95.0,26.930194962485693,27.474494233331644,27.130868756145702
96.0,27.448375143036245,28.01304854111979,27.66446459079929
97.0,27.978403209757523,28.551046993825587,28.20320581289637
98.0,28.50123788256198,29.080640774080532,28.743170995985384
99.0,29.023689637950156,29.623887968477796,29.28788706449512
100.0,29.56160320285242,30.167847513118762,29.83492192795081
101.0,30.112272321176714,30.714486265499147,30.390776513405843
102.0,30.666591936820186,31.265483123362067,30.953402004592817
103.0,31.22997106467839,31.82343534217682,31.517931699449893
104.0,31.782389225221703,32.3827197564533,32.085019033377755
105.0,32.34153355696704,32.948741103750656,32.654677403711716
106.0,32.91618429256603,33.5405342711322,33.237280787332445
107.0,33.485811781496736,34.13335928678745,33.81979371489421
108.0,34.076186791646755,34.73017414887203,34.407345441025214
109.0,34.68464197378605,35.325547857373024,35.001226667834906
110.0,35.28882644618162,35.923616416745354,35.59854510161513
111.0,35.88077509762952,36.53219156688079,36.200557367136234
112.0,36.47933392378501,37.13927432405064,36.81419471488427
113.0,37.1180691198376,37.747289209966546,37.42950228216988
114.0,37.74153218755731,38.35778339707525,38.04885881939018
115.0,38.37139690768439,38.99422794724116,38.67277566983458
116.0,38.99972817519447,39.633748717536214,39.30478928844514
117.0,39.62458784788382,40.26275740287965,39.94079203262552
118.0,40.251663151227405,40.897542521453,40.58091838047397
119.0,40.88595952927834,41.53800973211881,41.22422979569412
120.0,41.53750490203267,42.18950351804262,41.8719238851082
121.0,42.18446040880401,42.84312796221347,42.52471129684289
122.0,42.83401569143636,43.497545058561954,43.184520376913014
123.0,43.4902928045555,44.16326105215587,43.846752744335674
124.0,44.15033859063871,44.82126359592192,44.51178013328975
125.0,44.821677861965725,45.48492408318212,45.195441268931596
126.0,45.498077173230705,46.14732698068488,45.879708603579076
127.0,46.181530851763675,46.81272042494034,46.56543768552737
128.0,46.86825869129971,47.51982789037049,47.25717142250249
129.0,47.56964274571976,48.21911077656083,47.94972601686884
130.0,48.269451438826515,48.92314562099984,48.65168749791499
131.0,48.98945077932906,49.62434247635303,49.35534190813451
132.0,49.71463336767862,50.3449926484213,50.07224945510481
133.0,50.43576145041733,51.08542907008433,50.79739237805944
134.0,51.15606879987056,51.82241272121433,51.525680946056724
135.0,51.884987028259786,52.5632646789821,52.258627572715284
136.0,52.62411739867879,53.30083516895074,52.992362943904006
137.0,53.358955952601974,54.05061996669041,53.72896578345959
138.0,54.1030798353767,54.7970175564126,54.46534393928874
139.0,54.849472242752086,55.54999254914465,55.20847980704414
140.0,55.59900465349433,56.29623799670486,55.954657734560314
141.0,56.359926145400394,57.054618802666646,56.71416901411115
142.0,57.112810577175125,57.81038349695502,57.47433227254356
143.0,57.86805346594426,58.57742072624153,58.24312539105396
144.0,58.62964340181091,59.36082978550347,59.02060443064733
145.0,59.40725256243489,60.148389776616845,59.79882616181206
146.0,60.17849526413019,60.93321966825521,60.579166281461944
147.0,60.941794979395354,61.7114396319981,61.36221345173708
148.0,61.72364696097095,62.4930456264294,62.15395280370116
149.0,62.52930062323344,63.31010239985774,62.954124668676634
150.0,63.33809499490541,64.11541023511442,63.76399085210729
151.0,64.14374504466542,64.9161240249919,64.5703892649964
152.0,64.95291168831756,65.73246840111447,65.38313208376499
153.0,65.76473710730207,66.55673416709529,66.21016247250606
154.0,66.60607062791708,67.38047703560909,67.03889300161879
155.0,67.44743663493544,68.21888801132796,67.8679606111031
156.0,68.2817197533371,69.05943920141553,68.70160848026138
157.0,69.11783619889991,69.89953692227371,69.54222882754378
158.0,69.96140471850524,70.74387023052668,70.38664441669336
159.0,70.8046686239634,71.58851782181303,71.23844443036104
160.0,71.65918957349614,72.43736934006915,72.10029192547033
161.0,72.51904695483393,73.30949672857768,72.96414881630498
162.0,73.39806091430134,74.18351999070266,73.82899817959918
163.0,74.28807221325117,75.04596925903815,74.7000396753545
164.0,75.17414326087807,75.92379140552836,75.58008270442532
165.0,76.04819424381948,76.7965471817181,76.45748611752246
166.0,76.92755328376082,77.67098529592627,77.33489048684342
167.0,77.83945380964785,78.55857501665136,78.22376114394888
168.0,78.72740258602661,79.45107485272928,79.11293408802364
169.0,79.63681096162883,80.33877169107093,80.01191753314063
170.0,80.53494363526117,81.23859571676009,80.91231165026689
171.0,81.4732321209577,82.14421617157764,81.82155210460186
172.0,82.3914914964163,83.06283765404027,82.73087636942113
173.0,83.31147671043875,83.98876101185574,83.6477481605718
174.0,84.24083502748518,84.91665094034985,84.56781743523013
175.0,85.16571741691324,85.85193131859653,85.49585474418221
176.0,86.1023368921224,86.77995473864028,86.4253083207563
177.0,87.03568194453138,87.71042323166976,87.36241847475175
178.0,87.97585628955623,88.645129784355,88.30503282336193
179.0,88.92504433986264,89.58718910187024,89.24825085524424
180.0,89.87452994777354,90.52062930969994,90.19750114079473
181.0,90.82024558993288,91.47103340542412,91.15948708553053
182.0,91.79199100541648,92.42918810378768,92.12123819986009
183.0,92.76818239644169,93.38257139982663,93.09041353103125
184.0,93.75108363095437,94.35340374631338,94.06378381198692
185.0,94.74489027130649,95.34423629197521,95.0392895203086
186.0,95.72444244390353,96.34212588154473,96.02434678582732
187.0,96.70949405438964,97.34212588154473,97.00898265788379
188.0,97.68465373273938,98.34212588154473,97.99477215695148
189.0,98.67171680333092,99.33467274693534,98.9871806213262
190.0,99.67171680333092,100.33301510849496,99.98501448580694
191.0,100.67171680333092,101.33301510849496,100.9842067080911
192.0,101.67171680333092,102.33301510849496,101.98392930447498
193.0,102.67171680333092,103.33301510849496,102.98392930447498
194.0,103.67171680333092,104.33301510849496,103.98392930447498
195.0,104.67171680333092,105.33301510849496,104.98392930447498
196.0,105.67171680333092,106.33301510849496,105.98392930447498
197.0,106.67171680333092,107.33301510849496,106.98392930447498
198.0,107.67171680333092,108.33301510849496,107.98392930447498
199.0,108.67171680333092,109.33301510849496,108.98392930447498
200.0,109.67171680333092,110.33301510849496,109.98392930447498
201.0,110.67171680333092,111.33301510849496,110.98392930447498
202.0,111.67171680333092,112.33301510849496,111.98392930447498
203.0,112.67171680333092,113.33301510849496,112.98392930447498
204.0,113.67171680333092,114.33301510849496,113.98392930447498
205.0,114.67171680333092,115.33301510849496,114.98392930447498
206.0,115.67171680333092,116.33301510849496,115.98392930447498
207.0,116.67171680333092,117.33301510849496,116.98392930447498
208.0,117.67171680333092,118.33301510849496,117.98392930447498
209.0,118.67171680333092,119.33301510849496,118.98392930447498
210.0,119.67171680333092,120.33301510849496,119.98392930447498
211.0,120.67171680333092,121.33301510849496,120.98392930447498
212.0,121.67171680333092,122.33301510849496,121.98392930447498
213.0,122.67171680333092,123.33301510849496,122.98392930447498
214.0,123.67171680333092,124.33301510849496,123.98392930447498
215.0,124.67171680333092,125.33301510849496,124.98392930447498
216.0,125.67171680333092,126.33301510849496,125.98392930447498
217.0,126.67171680333092,127.33301510849496,126.98392930447498
218.0,127.67171680333092,128.33301510849498,127.98392930447497
219.0,128.67171680333092,129.33301510849498,128.98392930447497
220.0,129.67171680333092,130.33301510849498,129.98392930447497
221.0,130.67171680333092,131.33301510849498,130.98392930447497
222.0,131.67171680333092,132.33301510849498,131.98392930447497
223.0,132.67171680333092,133.33301510849498,132.98392930447497
224.0,133.67171680333092,134.33301510849498,133.98392930447497
225.0,134.67171680333092,135.33301510849498,134.98392930447497
226.0,135.67171680333092,136.33301510849498,135.98392930447497
227.0,136.67171680333092,137.33301510849498,136.98392930447497
228.0,137.67171680333092,138.33301510849498,137.98392930447497
229.0,138.67171680333092,139.33301510849498,138.98392930447497
230.0,139.67171680333092,140.33301510849498,139.98392930447497
231.0,140.67171680333092,141.33301510849498,140.98392930447497
232.0,141.67171680333092,142.33301510849498,141.98392930447497
233.0,142.67171680333092,143.33301510849498,142.98392930447497
234.0,143.67171680333092,144.33301510849498,143.98392930447497
235.0,144.67171680333092,145.33301510849498,144.98392930447497
236.0,145.67171680333092,146.33301510849498,145.98392930447497
237.0,146.67171680333092,147.33301510849498,146.98392930447497
238.0,147.67171680333092,148.33301510849498,147.98392930447497
239.0,148.67171680333092,149.33301510849498,148.98392930447497
240.0,149.67171680333092,150.33301510849498,149.98392930447497
241.0,150.67171680333092,151.33301510849498,150.98392930447497
242.0,151.67171680333092,152.33301510849498,151.98392930447497
243.0,152.67171680333092,153.33301510849498,152.98392930447497
244.0,153.67171680333092,154.33301510849498,153.98392930447497
245.0,154.67171680333092,155.33301510849498,154.98392930447497
246.0,155.67171680333092,156.33301510849498,155.98392930447497
247.0,156.67171680333092,157.33301510849498,156.98392930447497
248.0,157.67171680333092,158.33301510849498,157.98392930447497
249.0,158.67171680333092,159.33301510849498,158.98392930447497
250.0,159.67171680333092,160.33301510849498,159.98392930447497
251.0,160.67171680333092,161.33301510849498,160.98392930447497
252.0,161.67171680333092,162.33301510849498,161.98392930447497
253.0,162.67171680333092,163.33301510849498,162.98392930447497
254.0,163.67171680333092,164.33301510849498,163.98392930447497
255.0,164.67171680333092,165.33301510849498,164.98392930447497
256.0,165.67171680333092,166.33301510849498,165.98392930447497
257.0,166.67171680333092,167.33301510849498,166.98392930447497
258.0,167.67171680333092,168.33301510849498,167.98392930447497
259.0,168.67171680333092,169.33301510849498,168.98392930447497
260.0,169.67171680333092,170.33301510849498,169.98392930447497
261.0,170.67171680333092,171.33301510849498,170.98392930447497
262.0,171.67171680333092,172.33301510849498,171.98392930447497
263.0,172.67171680333092,173.33301510849498,172.98392930447497
264.0,173.67171680333092,174.33301510849498,173.98392930447497
265.0,174.67171680333092,175.33301510849498,174.98392930447497
266.0,175.67171680333092,176.33301510849498,175.98392930447497
267.0,176.67171680333092,177.33301510849498,176.98392930447497
268.0,177.67171680333092,178.33301510849498,177.98392930447497
269.0,178.67171680333092,179.33301510849498,178.98392930447497
270.0,179.67171680333092,180.33301510849498,179.98392930447497
271.0,180.67171680333092,181.33301510849498,180.98392930447497
272.0,181.67171680333092,182.33301510849498,181.98392930447497
273.0,182.67171680333092,183.33301510849498,182.98392930447497
274.0,183.67171680333092,184.33301510849498,183.98392930447497
275.0,184.67171680333092,185.33301510849498,184.98392930447497
276.0,185.67171680333092,186.33301510849498,185.98392930447497
277.0,186.67171680333092,187.33301510849498,186.98392930447497
278.0,187.67171680333092,188.33301510849498,187.98392930447497
279.0,188.67171680333092,189.33301510849498,188.98392930447497
280.0,189.67171680333092,190.33301510849498,189.98392930447497
281.0,190.67171680333092,191.33301510849498,190.98392930447497
282.0,191.67171680333092,192.33301510849498,191.98392930447497
283.0,192.67171680333092,193.33301510849498,192.98392930447497
284.0,193.67171680333092,194.33301510849498,193.98392930447497
285.0,194.67171680333092,195.33301510849498,194.98392930447497
286.0,195.67171680333092,196.33301510849498,195.98392930447497
287.0,196.67171680333092,197.33301510849498,196.98392930447497
288.0,197.67171680333092,198.33301510849498,197.98392930447497
289.0,198.67171680333092,199.33301510849498,198.98392930447497
290.0,199.67171680333092,200.33301510849498,199.98392930447497
291.0,200.67171680333092,201.33301510849498,200.98392930447497
292.0,201.67171680333092,202.33301510849498,201.98392930447497
293.0,202.67171680333092,203.33301510849498,202.98392930447497
294.0,203.67171680333092,204.33301510849498,203.98392930447497
295.0,204.67171680333092,205.33301510849498,204.98392930447497
296.0,205.67171680333092,206.33301510849498,205.98392930447497
297.0,206.67171680333092,207.33301510849498,206.98392930447497
298.0,207.67171680333092,208.33301510849498,207.98392930447497
299.0,208.67171680333092,209.33301510849498,208.98392930447497
300.0,209.67171680333092,210.33301510849498,209.98392930447497
301.0,210.67171680333092,211.33301510849498,210.98392930447497
302.0,211.67171680333092,212.33301510849498,211.98392930447497
303.0,212.67171680333092,213.33301510849498,212.98392930447497
304.0,213.67171680333092,214.33301510849498,213.98392930447497
305.0,214.67171680333092,215.33301510849498,214.98392930447497
306.0,215.67171680333092,216.33301510849498,215.98392930447497
307.0,216.67171680333092,217.33301510849498,216.98392930447497
308.0,217.67171680333092,218.33301510849498,217.98392930447497
309.0,218.67171680333092,219.33301510849498,218.98392930447497
310.0,219.67171680333092,220.33301510849498,219.98392930447497
311.0,220.67171680333092,221.33301510849498,220.98392930447497
312.0,221.67171680333092,222.33301510849498,221.98392930447497
313.0,222.67171680333092,223.33301510849498,222.98392930447497
314.0,223.67171680333092,224.33301510849498,223.98392930447497
315.0,224.67171680333092,225.33301510849498,224.98392930447497
316.0,225.67171680333092,226.33301510849498,225.98392930447497
317.0,226.67171680333092,227.33301510849498,226.98392930447497
318.0,227.67171680333092,228.33301510849498,227.98392930447497
319.0,228.67171680333092,229.33301510849498,228.98392930447497
320.0,229.67171680333092,230.33301510849498,229.98392930447497
321.0,230.67171680333092,231.33301510849498,230.98392930447497
322.0,231.67171680333092,232.33301510849498,231.98392930447497
323.0,232.67171680333092,233.33301510849498,232.98392930447497
324.0,233.67171680333092,234.33301510849498,233.98392930447497
325.0,234.67171680333092,235.33301510849498,234.98392930447497
326.0,235.67171680333092,236.33301510849498,235.98392930447497
327.0,236.67171680333092,237.33301510849498,236.98392930447497
328.0,237.67171680333092,238.33301510849498,237.98392930447497
329.0,238.67171680333092,239.33301510849498,238.98392930447497
330.0,239.67171680333092,240.33301510849498,239.98392930447497
331.0,240.67171680333092,241.33301510849498,240.98392930447497
332.0,241.67171680333092,242.33301510849498,241.98392930447497
333.0,242.67171680333092,243.33301510849498,242.98392930447497
334.0,243.67171680333092,244.33301510849498,243.98392930447497
335.0,244.67171680333092,245.33301510849498,244.98392930447497
336.0,245.67171680333092,246.33301510849498,245.98392930447497
337.0,246.67171680333092,247.33301510849498,246.98392930447497
338.0,247.67171680333092,248.33301510849498,247.98392930447497
339.0,248.67171680333092,249.33301510849498,248.98392930447497
340.0,249.67171680333092,250.33301510849498,249.98392930447497
341.0,250.67171680333092,251.33301510849498,250.98392930447497
342.0,251.67171680333092,252.33301510849498,251.98392930447497
343.0,252.67171680333092,253.33301510849498,252.98392930447497
344.0,253.67171680333092,254.33301510849498,253.98392930447497
345.0,254.67171680333092,255.33301510849498,254.98392930447497
346.0,255.67171680333092,256.333015108495,255.98392930447497
347.0,256.6717168033309,257.333015108495,256.98392930447494
348.0,257.6717168033309,258.333015108495,257.98392930447494
349.0,258.6717168033309,259.333015108495,258.98392930447494
350.0,259.6717168033309,260.333015108495,259.98392930447494
351.0,260.6717168033309,261.333015108495,260.98392930447494
352.0,261.6717168033309,262.333015108495,261.98392930447494
353.0,262.6717168033309,263.333015108495,262.98392930447494
354.0,263.6717168033309,264.333015108495,263.98392930447494
355.0,264.6717168033309,265.333015108495,264.98392930447494
356.0,265.6717168033309,266.333015108495,265.98392930447494
357.0,266.6717168033309,267.333015108495,266.98392930447494
358.0,267.6717168033309,268.333015108495,267.98392930447494
359.0,268.6717168033309,269.333015108495,268.98392930447494
360.0,269.6717168033309,270.333015108495,269.98392930447494
361.0,270.6717168033309,271.333015108495,270.98392930447494
362.0,271.6717168033309,272.333015108495,271.98392930447494
363.0,272.6717168033309,273.333015108495,272.98392930447494
364.0,273.6717168033309,274.333015108495,273.98392930447494
365.0,274.6717168033309,275.333015108495,274.98392930447494
366.0,275.6717168033309,276.333015108495,275.98392930447494
367.0,276.6717168033309,277.333015108495,276.98392930447494
368.0,277.6717168033309,278.333015108495,277.98392930447494
369.0,278.6717168033309,279.333015108495,278.98392930447494
370.0,279.6717168033309,280.333015108495,279.98392930447494
371.0,280.6717168033309,281.333015108495,280.98392930447494
372.0,281.6717168033309,282.333015108495,281.98392930447494
373.0,282.6717168033309,283.333015108495,282.98392930447494
374.0,283.6717168033309,284.333015108495,283.98392930447494
375.0,284.6717168033309,285.333015108495,284.98392930447494
376.0,285.6717168033309,286.333015108495,285.98392930447494
377.0,286.6717168033309,287.333015108495,286.98392930447494
378.0,287.6717168033309,288.333015108495,287.98392930447494
379.0,288.6717168033309,289.333015108495,288.98392930447494
380.0,289.6717168033309,290.333015108495,289.98392930447494
381.0,290.6717168033309,291.333015108495,290.98392930447494
382.0,291.6717168033309,292.333015108495,291.98392930447494
383.0,292.6717168033309,293.333015108495,292.98392930447494
384.0,293.6717168033309,294.333015108495,293.98392930447494
385.0,294.6717168033309,295.333015108495,294.98392930447494
386.0,295.6717168033309,296.333015108495,295.98392930447494
387.0,296.6717168033309,297.333015108495,296.98392930447494
388.0,297.6717168033309,298.333015108495,297.98392930447494
389.0,298.6717168033309,299.333015108495,298.98392930447494
390.0,299.6717168033309,300.333015108495,299.98392930447494
391.0,300.6717168033309,301.333015108495,300.98392930447494
392.0,301.6717168033309,302.333015108495,301.98392930447494
393.0,302.6717168033309,303.333015108495,302.98392930447494
394.0,303.6717168033309,304.333015108495,303.98392930447494
395.0,304.6717168033309,305.333015108495,304.98392930447494
396.0,305.6717168033309,306.333015108495,305.98392930447494
397.0,306.6717168033309,307.333015108495,306.98392930447494
398.0,307.6717168033309,308.333015108495,307.98392930447494
399.0,308.6717168033309,309.333015108495,308.98392930447494
400.0,309.6717168033309,310.333015108495,309.98392930447494
401.0,310.6717168033309,311.333015108495,310.98392930447494
402.0,311.6717168033309,312.333015108495,311.98392930447494
403.0,312.6717168033309,313.333015108495,312.98392930447494
404.0,313.6717168033309,314.333015108495,313.98392930447494
405.0,314.6717168033309,315.333015108495,314.98392930447494
406.0,315.6717168033309,316.333015108495,315.98392930447494
407.0,316.6717168033309,317.333015108495,316.98392930447494
408.0,317.6717168033309,318.333015108495,317.98392930447494
409.0,318.6717168033309,319.333015108495,318.98392930447494
410.0,319.6717168033309,320.333015108495,319.98392930447494
411.0,320.6717168033309,321.333015108495,320.98392930447494
412.0,321.6717168033309,322.333015108495,321.98392930447494
413.0,322.6717168033309,323.333015108495,322.98392930447494
414.0,323.6717168033309,324.333015108495,323.98392930447494
415.0,324.6717168033309,325.333015108495,324.98392930447494
416.0,325.6717168033309,326.333015108495,325.98392930447494
417.0,326.6717168033309,327.333015108495,326.98392930447494
418.0,327.6717168033309,328.333015108495,327.98392930447494
419.0,328.6717168033309,329.333015108495,328.98392930447494
420.0,329.6717168033309,330.333015108495,329.98392930447494
421.0,330.6717168033309,331.333015108495,330.98392930447494
422.0,331.6717168033309,332.333015108495,331.98392930447494
423.0,332.6717168033309,333.333015108495,332.98392930447494
424.0,333.6717168033309,334.333015108495,333.98392930447494
425.0,334.6717168033309,335.333015108495,334.98392930447494
426.0,335.6717168033309,336.333015108495,335.98392930447494
427.0,336.6717168033309,337.333015108495,336.98392930447494
428.0,337.6717168033309,338.333015108495,337.98392930447494
429.0,338.6717168033309,339.333015108495,338.98392930447494
430.0,339.6717168033309,340.333015108495,339.98392930447494
431.0,340.6717168033309,341.333015108495,340.98392930447494
432.0,341.6717168033309,342.333015108495,341.98392930447494
433.0,342.6717168033309,343.333015108495,342.98392930447494
434.0,343.6717168033309,344.333015108495,343.98392930447494
435.0,344.6717168033309,345.333015108495,344.98392930447494
436.0,345.6717168033309,346.333015108495,345.98392930447494
437.0,346.6717168033309,347.333015108495,346.98392930447494
438.0,347.6717168033309,348.333015108495,347.98392930447494
439.0,348.6717168033309,349.333015108495,348.98392930447494
440.0,349.6717168033309,350.333015108495,349.98392930447494
441.0,350.6717168033309,351.333015108495,350.98392930447494
442.0,351.6717168033309,352.333015108495,351.98392930447494
443.0,352.6717168033309,353.333015108495,352.98392930447494
444.0,353.6717168033309,354.333015108495,353.98392930447494
445.0,354.6717168033309,355.333015108495,354.98392930447494
446.0,355.6717168033309,356.333015108495,355.98392930447494
447.0,356.6717168033309,357.333015108495,356.98392930447494
448.0,357.6717168033309,358.333015108495,357.98392930447494
449.0,358.6717168033309,359.333015108495,358.98392930447494
450.0,359.6717168033309,360.333015108495,359.98392930447494
451.0,360.6717168033309,361.333015108495,360.98392930447494
452.0,361.6717168033309,362.333015108495,361.98392930447494
453.0,362.6717168033309,363.333015108495,362.98392930447494
454.0,363.6717168033309,364.333015108495,363.98392930447494
455.0,364.6717168033309,365.333015108495,364.98392930447494
456.0,365.6717168033309,366.333015108495,365.98392930447494
457.0,366.6717168033309,367.333015108495,366.98392930447494
458.0,367.6717168033309,368.333015108495,367.98392930447494
459.0,368.6717168033309,369.333015108495,368.98392930447494
460.0,369.6717168033309,370.333015108495,369.98392930447494
461.0,370.6717168033309,371.333015108495,370.98392930447494
462.0,371.6717168033309,372.333015108495,371.98392930447494
463.0,372.6717168033309,373.333015108495,372.98392930447494
464.0,373.6717168033309,374.333015108495,373.98392930447494
465.0,374.6717168033309,375.333015108495,374.98392930447494
466.0,375.6717168033309,376.333015108495,375.98392930447494
467.0,376.6717168033309,377.333015108495,376.98392930447494
468.0,377.6717168033309,378.333015108495,377.98392930447494
469.0,378.6717168033309,379.333015108495,378.98392930447494
470.0,379.6717168033309,380.333015108495,379.98392930447494
471.0,380.6717168033309,381.333015108495,380.98392930447494
472.0,381.6717168033309,382.333015108495,381.98392930447494
473.0,382.6717168033309,383.333015108495,382.98392930447494
474.0,383.6717168033309,384.333015108495,383.98392930447494
475.0,384.6717168033309,385.333015108495,384.98392930447494
476.0,385.6717168033309,386.333015108495,385.98392930447494
477.0,386.6717168033309,387.333015108495,386.98392930447494
478.0,387.6717168033309,388.333015108495,387.98392930447494
479.0,388.6717168033309,389.333015108495,388.98392930447494
480.0,389.6717168033309,390.333015108495,389.98392930447494
481.0,390.6717168033309,391.333015108495,390.98392930447494
482.0,391.6717168033309,392.333015108495,391.98392930447494
483.0,392.6717168033309,393.333015108495,392.98392930447494
484.0,393.6717168033309,394.333015108495,393.98392930447494
485.0,394.6717168033309,395.333015108495,394.98392930447494
486.0,395.6717168033309,396.333015108495,395.98392930447494
487.0,396.6717168033309,397.333015108495,396.98392930447494
488.0,397.6717168033309,398.333015108495,397.98392930447494
489.0,398.6717168033309,399.333015108495,398.98392930447494
490.0,399.6717168033309,400.333015108495,399.98392930447494
491.0,400.6717168033309,401.333015108495,400.98392930447494
492.0,401.6717168033309,402.333015108495,401.98392930447494
493.0,402.6717168033309,403.333015108495,402.98392930447494
494.0,403.6717168033309,404.333015108495,403.98392930447494
495.0,404.6717168033309,405.333015108495,404.98392930447494
496.0,405.6717168033309,406.333015108495,405.98392930447494
497.0,406.6717168033309,407.333015108495,406.98392930447494
498.0,407.6717168033309,408.333015108495,407.98392930447494
499.0,408.6717168033309,409.333015108495,408.98392930447494
500.0,409.6717168033309,410.333015108495,409.98392930447494
501.0,410.6717168033309,411.333015108495,410.98392930447494
502.0,411.6717168033309,412.333015108495,411.98392930447494
503.0,412.6717168033309,413.333015108495,412.98392930447494
504.0,413.6717168033309,414.333015108495,413.98392930447494
505.0,414.6717168033309,415.333015108495,414.98392930447494
506.0,415.6717168033309,416.333015108495,415.98392930447494
507.0,416.6717168033309,417.333015108495,416.98392930447494
508.0,417.6717168033309,418.333015108495,417.98392930447494
509.0,418.6717168033309,419.333015108495,418.98392930447494
510.0,419.6717168033309,420.333015108495,419.98392930447494
511.0,420.6717168033309,421.333015108495,420.98392930447494
512.0,421.6717168033309,422.333015108495,421.98392930447494
513.0,422.6717168033309,423.333015108495,422.98392930447494
514.0,423.6717168033309,424.333015108495,423.98392930447494
515.0,424.6717168033309,425.333015108495,424.98392930447494
516.0,425.6717168033309,426.333015108495,425.98392930447494
517.0,426.6717168033309,427.333015108495,426.98392930447494
518.0,427.6717168033309,428.333015108495,427.98392930447494
519.0,428.6717168033309,429.333015108495,428.98392930447494
520.0,429.6717168033309,430.333015108495,429.98392930447494
521.0,430.6717168033309,431.333015108495,430.98392930447494
522.0,431.6717168033309,432.333015108495,431.98392930447494
523.0,432.6717168033309,433.333015108495,432.98392930447494
524.0,433.6717168033309,434.333015108495,433.98392930447494
525.0,434.6717168033309,435.333015108495,434.98392930447494
526.0,435.6717168033309,436.333015108495,435.98392930447494
527.0,436.6717168033309,437.333015108495,436.98392930447494
528.0,437.6717168033309,438.333015108495,437.98392930447494
529.0,438.6717168033309,439.333015108495,438.98392930447494
530.0,439.6717168033309,440.333015108495,439.98392930447494
531.0,440.6717168033309,441.333015108495,440.98392930447494
532.0,441.6717168033309,442.333015108495,441.98392930447494
533.0,442.6717168033309,443.333015108495,442.98392930447494
534.0,443.6717168033309,444.333015108495,443.98392930447494
535.0,444.6717168033309,445.333015108495,444.98392930447494
536.0,445.6717168033309,446.333015108495,445.98392930447494
537.0,446.6717168033309,447.333015108495,446.98392930447494
538.0,447.6717168033309,448.333015108495,447.98392930447494
539.0,448.6717168033309,449.333015108495,448.98392930447494
540.0,449.6717168033309,450.333015108495,449.98392930447494
541.0,450.6717168033309,451.333015108495,450.98392930447494
542.0,451.6717168033309,452.333015108495,451.98392930447494
543.0,452.6717168033309,453.333015108495,452.98392930447494
544.0,453.6717168033309,454.333015108495,453.98392930447494
545.0,454.6717168033309,455.333015108495,454.98392930447494
546.0,455.6717168033309,456.333015108495,455.98392930447494
547.0,456.6717168033309,457.333015108495,456.98392930447494
548.0,457.6717168033309,458.333015108495,457.98392930447494
549.0,458.6717168033309,459.333015108495,458.98392930447494
550.0,459.6717168033309,460.333015108495,459.98392930447494
551.0,460.6717168033309,461.333015108495,460.98392930447494
552.0,461.6717168033309,462.333015108495,461.98392930447494
553.0,462.6717168033309,463.333015108495,462.98392930447494
554.0,463.6717168033309,464.333015108495,463.98392930447494
555.0,464.6717168033309,465.333015108495,464.98392930447494
556.0,465.6717168033309,466.333015108495,465.98392930447494
557.0,466.6717168033309,467.333015108495,466.98392930447494
558.0,467.6717168033309,468.333015108495,467.98392930447494
559.0,468.6717168033309,469.333015108495,468.98392930447494
560.0,469.6717168033309,470.333015108495,469.98392930447494
561.0,470.6717168033309,471.333015108495,470.98392930447494
562.0,471.6717168033309,472.333015108495,471.98392930447494
563.0,472.6717168033309,473.333015108495,472.98392930447494
564.0,473.6717168033309,474.333015108495,473.98392930447494
565.0,474.6717168033309,475.333015108495,474.98392930447494
566.0,475.6717168033309,476.333015108495,475.98392930447494
567.0,476.6717168033309,477.333015108495,476.98392930447494
568.0,477.6717168033309,478.333015108495,477.98392930447494
569.0,478.6717168033309,479.333015108495,478.98392930447494
570.0,479.6717168033309,480.333015108495,479.98392930447494
571.0,480.6717168033309,481.333015108495,480.98392930447494
572.0,481.6717168033309,482.333015108495,481.98392930447494
573.0,482.6717168033309,483.333015108495,482.98392930447494
574.0,483.6717168033309,484.333015108495,483.98392930447494
575.0,484.6717168033309,485.333015108495,484.98392930447494
576.0,485.6717168033309,486.333015108495,485.98392930447494
577.0,486.6717168033309,487.333015108495,486.98392930447494
578.0,487.6717168033309,488.333015108495,487.98392930447494
579.0,488.6717168033309,489.333015108495,488.98392930447494
580.0,489.6717168033309,490.333015108495,489.98392930447494
581.0,490.6717168033309,491.333015108495,490.98392930447494
582.0,491.6717168033309,492.333015108495,491.98392930447494
583.0,492.6717168033309,493.333015108495,492.98392930447494
584.0,493.6717168033309,494.333015108495,493.98392930447494
585.0,494.6717168033309,495.333015108495,494.98392930447494
586.0,495.6717168033309,496.333015108495,495.98392930447494
587.0,496.6717168033309,497.333015108495,496.98392930447494
588.0,497.6717168033309,498.333015108495,497.98392930447494
589.0,498.6717168033309,499.333015108495,498.98392930447494
590.0,499.6717168033309,500.333015108495,499.98392930447494
591.0,500.6717168033309,501.333015108495,500.98392930447494
592.0,501.6717168033309,502.333015108495,501.98392930447494
593.0,502.6717168033309,503.333015108495,502.98392930447494
594.0,503.6717168033309,504.333015108495,503.98392930447494
595.0,504.6717168033309,505.333015108495,504.98392930447494
596.0,505.6717168033309,506.333015108495,505.98392930447494
597.0,506.6717168033309,507.333015108495,506.98392930447494
598.0,507.6717168033309,508.333015108495,507.98392930447494
599.0,508.6717168033309,509.333015108495,508.98392930447494
600.0,509.6717168033309,510.333015108495,509.98392930447494
601.0,510.6717168033309,511.333015108495,510.98392930447494
602.0,511.6717168033309,512.3330151084949,511.98392930447494
603.0,512.6717168033309,513.3330151084949,512.9839293044749
604.0,513.6717168033309,514.3330151084949,513.9839293044749
605.0,514.6717168033309,515.3330151084949,514.9839293044749
606.0,515.6717168033309,516.3330151084949,515.9839293044749
607.0,516.6717168033309,517.3330151084949,516.9839293044749
608.0,517.6717168033309,518.3330151084949,517.9839293044749
609.0,518.6717168033309,519.3330151084949,518.9839293044749
610.0,519.6717168033309,520.3330151084949,519.9839293044749
611.0,520.6717168033309,521.3330151084949,520.9839293044749
612.0,521.6717168033309,522.3330151084949,521.9839293044749
613.0,522.6717168033309,523.3330151084949,522.9839293044749
614.0,523.6717168033309,524.3330151084949,523.9839293044749
615.0,524.6717168033309,525.3330151084949,524.9839293044749
616.0,525.6717168033309,526.3330151084949,525.9839293044749
617.0,526.6717168033309,527.3330151084949,526.9839293044749
618.0,527.6717168033309,528.3330151084949,527.9839293044749
619.0,528.6717168033309,529.3330151084949,528.9839293044749
620.0,529.6717168033309,530.3330151084949,529.9839293044749
621.0,530.6717168033309,531.3330151084949,530.9839293044749
622.0,531.6717168033309,532.3330151084949,531.9839293044749
623.0,532.6717168033309,533.3330151084949,532.9839293044749
624.0,533.6717168033309,534.3330151084949,533.9839293044749
625.0,534.6717168033309,535.3330151084949,534.9839293044749
626.0,535.6717168033309,536.3330151084949,535.9839293044749
627.0,536.6717168033309,537.3330151084949,536.9839293044749
628.0,537.6717168033309,538.3330151084949,537.9839293044749
629.0,538.6717168033309,539.3330151084949,538.9839293044749
630.0,539.6717168033309,540.3330151084949,539.9839293044749
631.0,540.6717168033309,541.3330151084949,540.9839293044749
632.0,541.6717168033309,542.3330151084949,541.9839293044749
633.0,542.6717168033309,543.3330151084949,542.9839293044749
634.0,543.6717168033309,544.3330151084949,543.9839293044749
635.0,544.6717168033309,545.3330151084949,544.9839293044749
636.0,545.6717168033309,546.3330151084949,545.9839293044749
637.0,546.6717168033309,547.3330151084949,546.9839293044749
638.0,547.6717168033309,548.3330151084949,547.9839293044749
639.0,548.6717168033309,549.3330151084949,548.9839293044749
640.0,549.6717168033309,550.3330151084949,549.9839293044749
641.0,550.6717168033309,551.3330151084949,550.9839293044749
642.0,551.6717168033309,552.3330151084949,551.9839293044749
643.0,552.6717168033309,553.3330151084949,552.9839293044749
644.0,553.6717168033309,554.3330151084949,553.9839293044749
645.0,554.6717168033309,555.3330151084949,554.9839293044749
646.0,555.6717168033309,556.3330151084949,555.9839293044749
647.0,556.6717168033309,557.3330151084949,556.9839293044749
648.0,557.6717168033309,558.3330151084949,557.9839293044749
649.0,558.6717168033309,559.3330151084949,558.9839293044749
650.0,559.6717168033309,560.3330151084949,559.9839293044749
651.0,560.6717168033309,561.3330151084949,560.9839293044749
652.0,561.6717168033309,562.3330151084949,561.9839293044749
653.0,562.6717168033309,563.3330151084949,562.9839293044749
654.0,563.6717168033309,564.3330151084949,563.9839293044749
655.0,564.6717168033309,565.3330151084949,564.9839293044749
656.0,565.6717168033309,566.3330151084949,565.9839293044749
657.0,566.6717168033309,567.3330151084949,566.9839293044749
658.0,567.6717168033309,568.3330151084949,567.9839293044749
659.0,568.6717168033309,569.3330151084949,568.9839293044749
660.0,569.6717168033309,570.3330151084949,569.9839293044749
661.0,570.6717168033309,571.3330151084949,570.9839293044749
662.0,571.6717168033309,572.3330151084949,571.9839293044749
663.0,572.6717168033309,573.3330151084949,572.9839293044749
664.0,573.6717168033309,574.3330151084949,573.9839293044749
665.0,574.6717168033309,575.3330151084949,574.9839293044749
666.0,575.6717168033309,576.3330151084949,575.9839293044749
667.0,576.6717168033309,577.3330151084949,576.9839293044749
668.0,577.6717168033309,578.3330151084949,577.9839293044749
669.0,578.6717168033309,579.3330151084949,578.9839293044749
670.0,579.6717168033309,580.3330151084949,579.9839293044749
671.0,580.6717168033309,581.3330151084949,580.9839293044749
672.0,581.6717168033309,582.3330151084949,581.9839293044749
673.0,582.6717168033309,583.3330151084949,582.9839293044749
674.0,583.6717168033309,584.3330151084949,583.9839293044749
675.0,584.6717168033309,585.3330151084949,584.9839293044749
676.0,585.6717168033309,586.3330151084949,585.9839293044749
677.0,586.6717168033309,587.3330151084949,586.9839293044749
678.0,587.6717168033309,588.3330151084949,587.9839293044749
679.0,588.6717168033309,589.3330151084949,588.9839293044749
680.0,589.6717168033309,590.3330151084949,589.9839293044749
681.0,590.6717168033309,591.3330151084949,590.9839293044749
682.0,591.6717168033309,592.3330151084949,591.9839293044749
683.0,592.6717168033309,593.3330151084949,592.9839293044749
684.0,593.6717168033309,594.3330151084949,593.9839293044749
685.0,594.6717168033309,595.3330151084949,594.9839293044749
686.0,595.6717168033309,596.3330151084949,595.9839293044749
687.0,596.6717168033309,597.3330151084949,596.9839293044749
688.0,597.6717168033309,598.3330151084949,597.9839293044749
689.0,598.6717168033309,599.3330151084949,598.9839293044749
690.0,599.6717168033309,600.3330151084949,599.9839293044749
691.0,600.6717168033309,601.3330151084949,600.9839293044749
692.0,601.6717168033309,602.3330151084949,601.9839293044749
693.0,602.6717168033309,603.3330151084949,602.9839293044749
694.0,603.6717168033309,604.3330151084949,603.9839293044749
695.0,604.6717168033309,605.3330151084949,604.9839293044749
696.0,605.6717168033309,606.3330151084949,605.9839293044749
697.0,606.6717168033309,607.3330151084949,606.9839293044749
698.0,607.6717168033309,608.3330151084949,607.9839293044749
699.0,608.6717168033309,609.3330151084949,608.9839293044749
700.0,609.6717168033309,610.3330151084949,609.9839293044749
701.0,610.6717168033309,611.3330151084949,610.9839293044749
702.0,611.6717168033309,612.3330151084949,611.9839293044749
703.0,612.6717168033309,613.3330151084949,612.9839293044749
704.0,613.6717168033309,614.3330151084949,613.9839293044749
705.0,614.6717168033309,615.3330151084949,614.9839293044749
706.0,615.6717168033309,616.3330151084949,615.9839293044749
707.0,616.6717168033309,617.3330151084949,616.9839293044749
708.0,617.6717168033309,618.3330151084949,617.9839293044749
709.0,618.6717168033309,619.3330151084949,618.9839293044749
710.0,619.6717168033309,620.3330151084949,619.9839293044749
711.0,620.6717168033309,621.3330151084949,620.9839293044749
712.0,621.6717168033309,622.3330151084949,621.9839293044749
713.0,622.6717168033309,623.3330151084949,622.9839293044749
714.0,623.6717168033309,624.3330151084949,623.9839293044749
715.0,624.6717168033309,625.3330151084949,624.9839293044749
716.0,625.6717168033309,626.3330151084949,625.9839293044749
717.0,626.6717168033309,627.3330151084949,626.9839293044749
718.0,627.6717168033309,628.3330151084949,627.9839293044749
719.0,628.6717168033309,629.3330151084949,628.9839293044749
720.0,629.6717168033309,630.3330151084949,629.9839293044749
721.0,630.6717168033309,631.3330151084949,630.9839293044749
722.0,631.6717168033309,632.3330151084949,631.9839293044749
723.0,632.6717168033309,633.3330151084949,632.9839293044749
724.0,633.6717168033309,634.3330151084949,633.9839293044749
725.0,634.6717168033309,635.3330151084949,634.9839293044749
726.0,635.6717168033309,636.3330151084949,635.9839293044749
727.0,636.6717168033309,637.3330151084949,636.9839293044749
728.0,637.6717168033309,638.3330151084949,637.9839293044749
729.0,638.6717168033309,639.3330151084949,638.9839293044749
730.0,639.6717168033309,640.3330151084949,639.9839293044749
731.0,640.6717168033309,641.3330151084949,640.9839293044749
732.0,641.6717168033309,642.3330151084949,641.9839293044749
733.0,642.6717168033309,643.3330151084949,642.9839293044749
734.0,643.6717168033309,644.3330151084949,643.9839293044749
735.0,644.6717168033309,645.3330151084949,644.9839293044749
736.0,645.6717168033309,646.3330151084949,645.9839293044749
737.0,646.6717168033309,647.3330151084949,646.9839293044749
738.0,647.6717168033309,648.3330151084949,647.9839293044749
739.0,648.6717168033309,649.3330151084949,648.9839293044749
740.0,649.6717168033309,650.3330151084949,649.9839293044749
741.0,650.6717168033309,651.3330151084949,650.9839293044749
742.0,651.6717168033309,652.3330151084949,651.9839293044749
743.0,652.6717168033309,653.3330151084949,652.9839293044749
744.0,653.6717168033309,654.3330151084949,653.9839293044749
745.0,654.6717168033309,655.3330151084949,654.9839293044749
746.0,655.6717168033309,656.3330151084949,655.9839293044749
747.0,656.6717168033309,657.3330151084949,656.9839293044749
748.0,657.6717168033309,658.3330151084949,657.9839293044749
749.0,658.6717168033309,659.3330151084949,658.9839293044749
750.0,659.6717168033309,660.3330151084949,659.9839293044749
751.0,660.6717168033309,661.3330151084949,660.9839293044749
752.0,661.6717168033309,662.3330151084949,661.9839293044749
753.0,662.6717168033309,663.3330151084949,662.9839293044749
754.0,663.6717168033309,664.3330151084949,663.9839293044749
755.0,664.6717168033309,665.3330151084949,664.9839293044749
756.0,665.6717168033309,666.3330151084949,665.9839293044749
757.0,666.6717168033309,667.3330151084949,666.9839293044749
758.0,667.6717168033309,668.3330151084949,667.9839293044749
759.0,668.6717168033309,669.3330151084949,668.9839293044749
760.0,669.6717168033309,670.3330151084949,669.9839293044749
761.0,670.6717168033309,671.3330151084949,670.9839293044749
762.0,671.6717168033309,672.3330151084949,671.9839293044749
763.0,672.6717168033309,673.3330151084949,672.9839293044749
764.0,673.6717168033309,674.3330151084949,673.9839293044749
765.0,674.6717168033309,675.3330151084949,674.9839293044749
766.0,675.6717168033309,676.3330151084949,675.9839293044749
767.0,676.6717168033309,677.3330151084949,676.9839293044749
768.0,677.6717168033309,678.3330151084949,677.9839293044749
769.0,678.6717168033309,679.3330151084949,678.9839293044749
770.0,679.6717168033309,680.3330151084949,679.9839293044749
771.0,680.6717168033309,681.3330151084949,680.9839293044749
772.0,681.6717168033309,682.3330151084949,681.9839293044749
773.0,682.6717168033309,683.3330151084949,682.9839293044749
774.0,683.6717168033309,684.3330151084949,683.9839293044749
775.0,684.6717168033309,685.3330151084949,684.9839293044749
776.0,685.6717168033309,686.3330151084949,685.9839293044749
777.0,686.6717168033309,687.3330151084949,686.9839293044749
778.0,687.6717168033309,688.3330151084949,687.9839293044749
779.0,688.6717168033309,689.3330151084949,688.9839293044749
780.0,689.6717168033309,690.3330151084949,689.9839293044749
781.0,690.6717168033309,691.3330151084949,690.9839293044749
782.0,691.6717168033309,692.3330151084949,691.9839293044749
783.0,692.6717168033309,693.3330151084949,692.9839293044749
784.0,693.6717168033309,694.3330151084949,693.9839293044749
785.0,694.6717168033309,695.3330151084949,694.9839293044749
786.0,695.6717168033309,696.3330151084949,695.9839293044749
787.0,696.6717168033309,697.3330151084949,696.9839293044749
788.0,697.6717168033309,698.3330151084949,697.9839293044749
789.0,698.6717168033309,699.3330151084949,698.9839293044749
790.0,699.6717168033309,700.3330151084949,699.9839293044749
791.0,700.6717168033309,701.3330151084949,700.9839293044749
792.0,701.6717168033309,702.3330151084949,701.9839293044749
793.0,702.6717168033309,703.3330151084949,702.9839293044749
794.0,703.6717168033309,704.3330151084949,703.9839293044749
795.0,704.6717168033309,705.3330151084949,704.9839293044749
796.0,705.6717168033309,706.3330151084949,705.9839293044749
797.0,706.6717168033309,707.3330151084949,706.9839293044749
798.0,707.6717168033309,708.3330151084949,707.9839293044749
799.0,708.6717168033309,709.3330151084949,708.9839293044749
800.0,709.6717168033309,710.3330151084949,709.9839293044749
801.0,710.6717168033309,711.3330151084949,710.9839293044749
802.0,711.6717168033309,712.3330151084949,711.9839293044749
803.0,712.6717168033309,713.3330151084949,712.9839293044749
804.0,713.6717168033309,714.3330151084949,713.9839293044749
805.0,714.6717168033309,715.3330151084949,714.9839293044749
806.0,715.6717168033309,716.3330151084949,715.9839293044749
807.0,716.6717168033309,717.3330151084949,716.9839293044749
808.0,717.6717168033309,718.3330151084949,717.9839293044749
809.0,718.6717168033309,719.3330151084949,718.9839293044749
810.0,719.6717168033309,720.3330151084949,719.9839293044749
811.0,720.6717168033309,721.3330151084949,720.9839293044749
812.0,721.6717168033309,722.3330151084949,721.9839293044749
813.0,722.6717168033309,723.3330151084949,722.9839293044749
814.0,723.6717168033309,724.3330151084949,723.9839293044749
815.0,724.6717168033309,725.3330151084949,724.9839293044749
816.0,725.6717168033309,726.3330151084949,725.9839293044749
817.0,726.6717168033309,727.3330151084949,726.9839293044749
818.0,727.6717168033309,728.3330151084949,727.9839293044749
819.0,728.6717168033309,729.3330151084949,728.9839293044749
820.0,729.6717168033309,730.3330151084949,729.9839293044749
821.0,730.6717168033309,731.3330151084949,730.9839293044749
822.0,731.6717168033309,732.3330151084949,731.9839293044749
823.0,732.6717168033309,733.3330151084949,732.9839293044749
824.0,733.6717168033309,734.3330151084949,733.9839293044749
825.0,734.6717168033309,735.3330151084949,734.9839293044749
826.0,735.6717168033309,736.3330151084949,735.9839293044749
827.0,736.6717168033309,737.3330151084949,736.9839293044749
828.0,737.6717168033309,738.3330151084949,737.9839293044749
829.0,738.6717168033309,739.3330151084949,738.9839293044749
830.0,739.6717168033309,740.3330151084949,739.9839293044749
831.0,740.6717168033309,741.3330151084949,740.9839293044749
832.0,741.6717168033309,742.3330151084949,741.9839293044749
833.0,742.6717168033309,743.3330151084949,742.9839293044749
834.0,743.6717168033309,744.3330151084949,743.9839293044749
835.0,744.6717168033309,745.3330151084949,744.9839293044749
836.0,745.6717168033309,746.3330151084949,745.9839293044749
837.0,746.6717168033309,747.3330151084949,746.9839293044749
838.0,747.6717168033309,748.3330151084949,747.9839293044749
839.0,748.6717168033309,749.3330151084949,748.9839293044749
840.0,749.6717168033309,750.3330151084949,749.9839293044749
841.0,750.6717168033309,751.3330151084949,750.9839293044749
842.0,751.6717168033309,752.3330151084949,751.9839293044749
843.0,752.6717168033309,753.3330151084949,752.9839293044749
844.0,753.6717168033309,754.3330151084949,753.9839293044749
845.0,754.6717168033309,755.3330151084949,754.9839293044749
846.0,755.6717168033309,756.3330151084949,755.9839293044749
847.0,756.6717168033309,757.3330151084949,756.9839293044749
848.0,757.6717168033309,758.3330151084949,757.9839293044749
849.0,758.6717168033309,759.3330151084949,758.9839293044749
850.0,759.6717168033309,760.3330151084949,759.9839293044749
851.0,760.6717168033309,761.3330151084949,760.9839293044749
852.0,761.6717168033309,762.3330151084949,761.9839293044749
853.0,762.6717168033309,763.3330151084949,762.9839293044749
854.0,763.6717168033309,764.3330151084949,763.9839293044749
855.0,764.6717168033309,765.3330151084949,764.9839293044749
856.0,765.6717168033309,766.3330151084949,765.9839293044749
857.0,766.6717168033309,767.3330151084949,766.9839293044749
858.0,767.6717168033309,768.3330151084949,767.9839293044749
859.0,768.6717168033309,769.3330151084949,768.9839293044749
860.0,769.6717168033309,770.3330151084949,769.9839293044749
861.0,770.6717168033309,771.3330151084949,770.9839293044749
862.0,771.6717168033309,772.3330151084949,771.9839293044749
863.0,772.6717168033309,773.3330151084949,772.9839293044749
864.0,773.6717168033309,774.3330151084949,773.9839293044749
865.0,774.6717168033309,775.3330151084949,774.9839293044749
866.0,775.6717168033309,776.3330151084949,775.9839293044749
867.0,776.6717168033309,777.3330151084949,776.9839293044749
868.0,777.6717168033309,778.3330151084949,777.9839293044749
869.0,778.6717168033309,779.3330151084949,778.9839293044749
870.0,779.6717168033309,780.3330151084949,779.9839293044749
871.0,780.6717168033309,781.3330151084949,780.9839293044749
872.0,781.6717168033309,782.3330151084949,781.9839293044749
873.0,782.6717168033309,783.3330151084949,782.9839293044749
874.0,783.6717168033309,784.3330151084949,783.9839293044749
875.0,784.6717168033309,785.3330151084949,784.9839293044749
876.0,785.6717168033309,786.3330151084949,785.9839293044749
877.0,786.6717168033309,787.3330151084949,786.9839293044749
878.0,787.6717168033309,788.3330151084949,787.9839293044749
879.0,788.6717168033309,789.3330151084949,788.9839293044749
880.0,789.6717168033309,790.3330151084949,789.9839293044749
881.0,790.6717168033309,791.3330151084949,790.9839293044749
882.0,791.6717168033309,792.3330151084949,791.9839293044749
883.0,792.6717168033309,793.3330151084949,792.9839293044749
884.0,793.6717168033309,794.3330151084949,793.9839293044749
885.0,794.6717168033309,795.3330151084949,794.9839293044749
886.0,795.6717168033309,796.3330151084949,795.9839293044749
887.0,796.6717168033309,797.3330151084949,796.9839293044749
888.0,797.6717168033309,798.3330151084949,797.9839293044749
889.0,798.6717168033309,799.3330151084949,798.9839293044749
890.0,799.6717168033309,800.3330151084949,799.9839293044749
891.0,800.6717168033309,801.3330151084949,800.9839293044749
892.0,801.6717168033309,802.3330151084949,801.9839293044749
893.0,802.6717168033309,803.3330151084949,802.9839293044749
894.0,803.6717168033309,804.3330151084949,803.9839293044749
895.0,804.6717168033309,805.3330151084949,804.9839293044749
896.0,805.6717168033309,806.3330151084949,805.9839293044749
897.0,806.6717168033309,807.3330151084949,806.9839293044749
898.0,807.6717168033309,808.3330151084949,807.9839293044749
899.0,808.6717168033309,809.3330151084949,808.9839293044749
900.0,809.6717168033309,810.3330151084949,809.9839293044749
901.0,810.6717168033309,811.3330151084949,810.9839293044749
902.0,811.6717168033309,812.3330151084949,811.9839293044749
903.0,812.6717168033309,813.3330151084949,812.9839293044749
904.0,813.6717168033309,814.3330151084949,813.9839293044749
905.0,814.6717168033309,815.3330151084949,814.9839293044749
906.0,815.6717168033309,816.3330151084949,815.9839293044749
907.0,816.6717168033309,817.3330151084949,816.9839293044749
908.0,817.6717168033309,818.3330151084949,817.9839293044749
909.0,818.6717168033309,819.3330151084949,818.9839293044749
910.0,819.6717168033309,820.3330151084949,819.9839293044749
911.0,820.6717168033309,821.3330151084949,820.9839293044749
912.0,821.6717168033309,822.3330151084949,821.9839293044749
913.0,822.6717168033309,823.3330151084949,822.9839293044749
914.0,823.6717168033309,824.3330151084949,823.9839293044749
915.0,824.6717168033309,825.3330151084949,824.9839293044749
916.0,825.6717168033309,826.3330151084949,825.9839293044749
917.0,826.6717168033309,827.3330151084949,826.9839293044749
918.0,827.6717168033309,828.3330151084949,827.9839293044749
919.0,828.6717168033309,829.3330151084949,828.9839293044749
920.0,829.6717168033309,830.3330151084949,829.9839293044749
921.0,830.6717168033309,831.3330151084949,830.9839293044749
922.0,831.6717168033309,832.3330151084949,831.9839293044749
923.0,832.6717168033309,833.3330151084949,832.9839293044749
924.0,833.6717168033309,834.3330151084949,833.9839293044749
925.0,834.6717168033309,835.3330151084949,834.9839293044749
926.0,835.6717168033309,836.3330151084949,835.9839293044749
927.0,836.6717168033309,837.3330151084949,836.9839293044749
928.0,837.6717168033309,838.3330151084949,837.9839293044749
929.0,838.6717168033309,839.3330151084949,838.9839293044749
930.0,839.6717168033309,840.3330151084949,839.9839293044749
931.0,840.6717168033309,841.3330151084949,840.9839293044749
932.0,841.6717168033309,842.3330151084949,841.9839293044749
933.0,842.6717168033309,843.3330151084949,842.9839293044749
934.0,843.6717168033309,844.3330151084949,843.9839293044749
935.0,844.6717168033309,845.3330151084949,844.9839293044749
936.0,845.6717168033309,846.3330151084949,845.9839293044749
937.0,846.6717168033309,847.3330151084949,846.9839293044749
938.0,847.6717168033309,848.3330151084949,847.9839293044749
939.0,848.6717168033309,849.3330151084949,848.9839293044749
940.0,849.6717168033309,850.3330151084949,849.9839293044749
941.0,850.6717168033309,851.3330151084949,850.9839293044749
942.0,851.6717168033309,852.3330151084949,851.9839293044749
943.0,852.6717168033309,853.3330151084949,852.9839293044749
944.0,853.6717168033309,854.3330151084949,853.9839293044749
945.0,854.6717168033309,855.3330151084949,854.9839293044749
946.0,855.6717168033309,856.3330151084949,855.9839293044749
947.0,856.6717168033309,857.3330151084949,856.9839293044749
948.0,857.6717168033309,858.3330151084949,857.9839293044749
949.0,858.6717168033309,859.3330151084949,858.9839293044749
950.0,859.6717168033309,860.3330151084949,859.9839293044749
951.0,860.6717168033309,861.3330151084949,860.9839293044749
952.0,861.6717168033309,862.3330151084949,861.9839293044749
953.0,862.6717168033309,863.3330151084949,862.9839293044749
954.0,863.6717168033309,864.3330151084949,863.9839293044749
955.0,864.6717168033309,865.3330151084949,864.9839293044749
956.0,865.6717168033309,866.3330151084949,865.9839293044749
957.0,866.6717168033309,867.3330151084949,866.9839293044749
958.0,867.6717168033309,868.3330151084949,867.9839293044749
959.0,868.6717168033309,869.3330151084949,868.9839293044749
960.0,869.6717168033309,870.3330151084949,869.9839293044749
961.0,870.6717168033309,871.3330151084949,870.9839293044749
962.0,871.6717168033309,872.3330151084949,871.9839293044749
963.0,872.6717168033309,873.3330151084949,872.9839293044749
964.0,873.6717168033309,874.3330151084949,873.9839293044749
965.0,874.6717168033309,875.3330151084949,874.9839293044749
966.0,875.6717168033309,876.3330151084949,875.9839293044749
967.0,876.6717168033309,877.3330151084949,876.9839293044749
968.0,877.6717168033309,878.3330151084949,877.9839293044749
969.0,878.6717168033309,879.3330151084949,878.9839293044749
970.0,879.6717168033309,880.3330151084949,879.9839293044749
971.0,880.6717168033309,881.3330151084949,880.9839293044749
972.0,881.6717168033309,882.3330151084949,881.9839293044749
973.0,882.6717168033309,883.3330151084949,882.9839293044749
974.0,883.6717168033309,884.3330151084949,883.9839293044749
975.0,884.6717168033309,885.3330151084949,884.9839293044749
976.0,885.6717168033309,886.3330151084949,885.9839293044749
977.0,886.6717168033309,887.3330151084949,886.9839293044749
978.0,887.6717168033309,888.3330151084949,887.9839293044749
979.0,888.6717168033309,889.3330151084949,888.9839293044749
980.0,889.6717168033309,890.3330151084949,889.9839293044749
981.0,890.6717168033309,891.3330151084949,890.9839293044749
982.0,891.6717168033309,892.3330151084949,891.9839293044749
983.0,892.6717168033309,893.3330151084949,892.9839293044749
984.0,893.6717168033309,894.3330151084949,893.9839293044749
985.0,894.6717168033309,895.3330151084949,894.9839293044749
986.0,895.6717168033309,896.3330151084949,895.9839293044749
987.0,896.6717168033309,897.3330151084949,896.9839293044749
988.0,897.6717168033309,898.3330151084949,897.9839293044749
989.0,898.6717168033309,899.3330151084949,898.9839293044749
990.0,899.6717168033309,900.3330151084949,899.9839293044749
991.0,900.6717168033309,901.3330151084949,900.9839293044749
992.0,901.6717168033309,902.3330151084949,901.9839293044749
993.0,902.6717168033309,903.3330151084949,902.9839293044749
994.0,903.6717168033309,904.3330151084949,903.9839293044749
995.0,904.6717168033309,905.3330151084949,904.9839293044749
996.0,905.6717168033309,906.3330151084949,905.9839293044749
997.0,906.6717168033309,907.3330151084949,906.9839293044749
998.0,907.6717168033309,908.3330151084949,907.9839293044749
999.0,908.6717168033309,909.3330151084949,908.9839293044749
1000.0,909.6717168033309,910.3330151084949,909.9839293044749
